7500             1000             3600             1200           160000            15000         1.2e-008         2.7e-008      73.97626409      2.777777778      1.144091192       3.62582369             0.25     0.4142857143                3             0.27            0.925              145             1300             0.05                2                2                0             1001
2400             6800            10000             2000           620000            39000         3.9e-008         2.2e-009      73.71043449      6.125356125      6.672597228     0.1638721363     0.1666666667     0.4408194234                3             0.37            0.925              145             1300             0.05                2                2                0             1002
5600             3900           150000            24000            36000             1800         1.8e-008         3.3e-009      65.90204094      3.448275862      1.193482106      2.229084288     0.1379310345     0.4523809524                3             0.37            0.925              145             1300             0.05              1.9                2                0             1004
30000             1300           910000            43000           180000             2700         3.9e-009         2.7e-009      61.79638601      1.772181415      3.812359385      3.177610567    0.04512067156     0.4852216749                3             0.37            0.925              145             1300             0.05                2                2                0             1003
10000             2200            43000             3000           160000             3600           1e-008         2.2e-009       64.9247732      1.207729469      8.514733926     0.8810596709     0.0652173913       0.47799511                3             0.37            0.925              145             1300             0.05                2                2                0             1002
12000            1500           15000            1200           43000            1100        8.2e-009        3.9e-009      64.3310174      1.01010101      6.09789418      2.30994584    0.0740740741     0.475056689               3            0.27           0.925             145            1300            0.05               2               2               0            1001
20000             1200            33000             1100           430000             4700         5.6e-009         2.2e-009      57.49097303     0.5490734386      3.233761817      1.563536753    0.03225806452     0.4891879457                3             0.37            0.925              145             1300             0.05              1.9                2                0             1004
24000            3900           30000            8200           47000            4300        3.9e-009        6.8e-009      87.3455843      14.6353342      3.37694912      6.24939864     0.214659686     0.416179337               3            0.37           0.925             145            1300            0.05               2               2               0            1003
18000           22000           22000           20000           82000           16000        3.9e-009        3.3e-009      87.4672665      2.77777778      1.52265521      1.87431648     0.476190476     0.336734694               3            0.37           0.925             145            1300            0.05               2               2               0            1002
4700            12000            62000            12000           180000            10000         2.2e-008         1.2e-009      67.43764154      2.702702703      2.782966753     0.9989137623     0.1621621622     0.4473684211                3             0.27            0.925              145             1300             0.05                2                2                0             1001
1800           18000           16000            4300           22000            1800        5.6e-008        1.2e-009      75.1828721      6.64112388      2.43638086      2.48612658      0.21182266     0.424369748               3            0.37           0.925             145            1300            0.05             1.9               2               0            1004
47000             9100           360000            91000            30000             2200         2.2e-009         2.2e-009      71.76175859      1.558825506      5.271962781      1.585884853     0.2017738359     0.4316770186                3             0.37            0.925              145             1300             0.05                2                2                0             1003
4300            15000            22000            24000           360000            75000         1.5e-008         5.6e-009      89.23301217     0.8695652174      1.308440281      2.122472936     0.5217391304     0.3275862069                3             0.37            0.925              145             1300             0.05                2                2                0             1002
30000            13000           620000            91000           110000             5100         3.9e-009           1e-009      74.33273063        3.7156541      12.12926278     0.1198685596     0.1279887482     0.4556907037                3             0.27            0.925              145             1300             0.05                2                2                0             1001
1800           22000           16000            4700           16000            1300        5.6e-008          1e-009      72.8181478     0.718444197      3.66364505      3.24519542      0.22705314     0.424855491               3            0.37           0.925             145            1300            0.05             1.9               2               0            1004
22000             7500            12000             1600           200000             8200         4.7e-009         1.5e-009      69.25447144     0.4304160689       5.51224522      5.485624922     0.1176470588     0.4606147935                3             0.37            0.925              145             1300             0.05                2                2                0             1003
2000           43000           47000           33000            6800            1100        3.9e-008        1.2e-009      81.9353956            1.25     0.899697848      2.45974839          0.4125     0.360759494               3            0.37           0.925             145            1300            0.05               2               2               0            1002
33000            4300           51000            8200           36000            1800        3.3e-009        2.7e-009      69.2844823      3.04054054    0.0864036036      7.06809154     0.138513514     0.452380952               3            0.27           0.925             145            1300            0.05               2               2               0            1001
10000             4700           560000            62000           620000            22000         1.2e-008         1.8e-009      73.10804522       3.04004677      5.906456786      7.620487284    0.09967845659     0.4657320872                3             0.37            0.925              145             1300             0.05              1.9                2                0             1004
11000             6200           150000            56000            36000             3600         8.2e-009         4.7e-009      72.01584083     0.3236245955      1.831514904        1.7671444     0.2718446602     0.4090909091                3             0.37                1              145             1300             0.05                2                2                0             1002
33000             3600           160000             9100           130000             2400         3.3e-009         1.2e-009      55.02468668      1.041461331     0.2992872477     0.1151958189    0.05381431106     0.4818731118                3             0.37            0.925              145             1300             0.05                2                2                0             1003
24000             3000            20000             6800           160000            15000         3.3e-009           1e-008      81.95900493      1.326699834    0.02703981701      13.80355952     0.2537313433     0.4142857143                3             0.27                1              145             1300             0.05                2                2                0             1001
2400             5100           160000            16000           820000            24000         3.9e-008         1.5e-009      74.12156877      6.565656566      1.753693961      9.554911052    0.09090909091      0.471563981                3             0.37            0.925              145             1300             0.05              1.9                2                0             1004
2000             3000           430000            30000            91000             2000         5.6e-008         1.8e-009      59.56932567      1.086956522      4.058049801    0.05311785516     0.0652173913     0.4784946237                3             0.37                1              145             1300             0.05                2                2                0             1002
5100             6200           180000           100000            22000             3000         1.5e-008         6.8e-009      81.69852516     0.7936507937      3.487620172       3.70296848     0.3571428571             0.38                3             0.37            0.925              145             1300             0.05                2                2                0             1003
3300            13000           910000           180000           560000            33000         2.7e-008         1.2e-009      72.85688867      1.084236864      3.629150224      7.194664227     0.1651376147     0.4443507589                3             0.27                1              145             1300             0.05                2                2                0             1001
56000            75000           820000           910000           680000           150000         1.2e-009         1.2e-009      92.18601872      2.980089917      3.881847723     0.7952141638     0.5260115607     0.3192771084                3             0.37                1              145             1300             0.05                2                2                0             1002
16000             2700           470000            20000           300000             4300         6.8e-009         1.2e-009      58.71600605      3.717766176      1.486150457     0.8435359594    0.04081632653      0.485869208                3             0.37            0.925              145             1300             0.05              1.9                2                0             1004
1800             5600           680000           360000            47000             6200         4.7e-008         6.8e-009      79.24226993     0.9925558313      1.843518756      3.444946065     0.3461538462     0.3834586466                3             0.37            0.925              145             1300             0.05                2                2                0             1003
27000            10000           910000           150000           750000            36000         3.9e-009         1.2e-009      66.48028982      2.987421384      1.907468707      2.014609009      0.141509434     0.4541984733                3             0.27                1              145             1300             0.05                2                2                0             1001
27000             6800           750000           100000           220000             9100         3.9e-009         1.5e-009      60.87200537      1.271277742      1.232237361     0.5758489862     0.1176470588      0.460279354                3             0.37                1              145             1300             0.05                2                2                0             1002
3600            2200            5600            1100           18000            1100        2.7e-008        6.8e-009      69.2878796      4.97512438      3.17661902     0.477388103     0.164179104     0.442408377               3            0.37           0.925             145            1300            0.05             1.9               2               0            1004
11000            47000             5100             3900           160000            27000         6.8e-009         1.2e-009      80.61278343    0.04115226337     0.6587821075      1.018018395     0.4333333333     0.3556149733                3             0.37            0.925              145             1300             0.05                2                2                0             1003
13000           12000           82000           22000           43000            3300        6.8e-009        1.8e-009       72.638122      1.06837607     0.899697848      6.64363176     0.211538462     0.428725702               3            0.27               1             145            1300            0.05               2               2               0            1001
1600             3900           910000           430000            62000             7500         5.6e-008           1e-008      80.59970236     0.8789386401       6.35844644      2.064131945     0.3208955224     0.3920863309                3             0.37                1              145             1300             0.05                2                2                0             1002
22000             1000           300000            68000            36000             2400         4.7e-009         1.8e-008      69.06945912      1.449275362      4.747149695     0.6447731895     0.1847826087           0.4375                3             0.37            0.925              145             1300             0.05              1.9                2                0             1004
2200             6200            75000            12000           110000             5600         4.7e-008         2.2e-009      71.44403743      5.090311987      4.379645814      3.025266834     0.1379310345     0.4515570934                3             0.37            0.925              145             1300             0.05                2                2                0             1003
6200            5600           43000           13000           13000            1100        1.5e-008        3.9e-009      70.8789622     0.811688312      2.72520267      1.92920398     0.232142857     0.421985816               3            0.27               1             145            1300            0.05               2               2               0            1001
22000             1500           620000            68000            36000             1200         4.7e-009         4.7e-009      72.60082621      2.131782946      7.622896547       6.18823224     0.0988372093     0.4677419355                3             0.27            0.925              145             1300             0.05                2                2                0             1002
16000            8200           39000            8200           51000            3300        6.8e-009        2.2e-009      75.0486442      4.71237802      8.61828608     0.422446831     0.173728814     0.439226519               3            0.37           0.925             145            1300            0.05             1.9               2               0            1004
3900            6200            7500            1300           24000            1300        2.7e-008        2.2e-009      67.8515902      4.16666667      2.26169206      1.78884416     0.147727273     0.448616601               3            0.37           0.925             145            1300            0.05               2               2               0            1003
27000             2200           620000            30000           680000            11000         3.9e-009         1.8e-009      61.55915986      3.356643357     0.8711108815      4.307916808    0.04615384615      0.484081042                3             0.37            0.925              145             1300             0.05                2                2                0             1001
22000           13000            9100            4300            9100            1100        3.9e-009        2.7e-009      73.9430191     0.814111262     0.832045137     0.991624139     0.320895522     0.392156863               3            0.27           0.925             145            1300            0.05               2               2               0            1002
2000           51000           10000            6800           30000            4700        3.9e-008          1e-009      77.9868881     0.388382303     0.120572613     0.546411302     0.404761905     0.364553314               3            0.37           0.925             145            1300            0.05               2               2               0            1004
13000             9100           820000           390000           150000            18000         6.8e-009         3.9e-009      75.22836636     0.2754820937      1.569062286      1.866702734     0.3223140496     0.3928571429                3             0.37            0.925              145             1300             0.05                2                2              0.5             1003
1000            7500            6200            3000           18000            2200        8.2e-008        4.7e-009      75.6986168     0.197628458      3.49246535     0.290916415     0.326086957     0.391089109               3            0.37           0.925             145            1300            0.05               2               2               0            1001
12000           27000            9100            8200           20000            3900        5.6e-009        2.7e-009      89.2831896      3.17672052     0.412790552       4.6128262     0.473988439     0.336820084               3            0.27           0.925             145            1300            0.05               2               2               0            1002
1300            56000           820000           620000            27000             4700         5.6e-008           1e-009       86.0542171      3.201339638      3.998595781     0.6252245501     0.4305555556     0.3517350158                3             0.37            0.925              145             1300             0.05                2                2                0             1004
56000            11000           240000            62000           330000            24000         1.8e-009         1.8e-009      69.55534168     0.9381898455      3.925989242     0.9410222879     0.2052980132     0.4322033898                3             0.37            0.925              145             1300             0.05                2                2              0.5             1003
12000             7500           240000            51000           360000            22000         8.2e-009         2.2e-009      68.00530184      1.437050922      2.357093067      2.444546958      0.175257732      0.442408377                3             0.37            0.925              145             1300             0.05                2                2                0             1001
51000             8200            75000            27000           160000            16000         1.8e-009         3.3e-009      73.14081045      2.941176471     0.9798903811      1.840064455     0.2647058824     0.4090909091                3             0.27            0.925              145             1300             0.05                2                2                0             1002
5600             1200           330000             5600           910000             5100         2.2e-008           1e-009      61.80321444     0.1970911527      2.008468201      8.486318066    0.01668653159     0.4944268386                3             0.37            0.925              145             1300             0.05                2                2                0             1004
7500             5600           160000            18000            51000             1800         1.5e-008         1.5e-009      65.04354968      1.123595506      2.735268582      4.481416946     0.1011235955     0.4659090909                3             0.37            0.925              145             1300             0.05                2                2              0.5             1003
4700             3600            15000             2700           300000            16000         2.2e-008         3.3e-009      73.42465555     0.4237288136      4.869936711      7.940043876     0.1525423729     0.4493670886                3             0.37            0.925              145             1300             0.05                2                2                0             1001
75000            22000           470000           360000           680000           120000           1e-009         2.7e-009      82.36136293      3.614457831     0.1687937892      0.204617332     0.4337349398             0.35                3             0.27            0.925              145             1300             0.05                2                2                0             1002
39000             2000            22000             1300           120000             2200         2.7e-009         2.2e-009        59.773564      3.303420471     0.1152705186        2.5758012    0.05579399142     0.4819967267                3             0.37            0.925              145             1300             0.05                2                2                0             1004
3000             2200           330000            24000           330000             7500         3.9e-008         2.7e-009      65.99136552      1.694915254       8.98611771     0.7528937628    0.06779661017     0.4777777778                3             0.37            0.925              145             1300             0.05                2                2              0.5             1003
3000             3900           130000            12000           240000             7500         3.3e-008         1.8e-009        69.743839      7.042253521      6.723236964     0.5579473191    0.08450704225     0.4696969697                3             0.27                1              145             1300             0.05                2                2                0             1002
6800             1800            33000             7500           300000            20000         1.5e-008           1e-008      67.60925934      1.234567901      4.095681475    0.01049144345     0.1851851852           0.4375                3             0.37            0.925              145             1300             0.05                2                2                0             1001
16000            20000           620000           180000            43000             3600         5.6e-009         1.2e-009      74.24768619      2.916666667     0.6935336486       5.86280776            0.225     0.4227467811                3             0.37            0.925              145             1300             0.05                2                2                0             1004
12000             7500            51000             9100           240000            13000         8.2e-009         1.8e-009       64.0718553      1.774819745      1.629959726     0.6639848064     0.1514143095     0.4486166008                3             0.37            0.925              145             1300             0.05                2                2              0.5             1003
62000             6800           470000            91000            56000             3300         1.5e-009         2.2e-009      70.59047407      2.837645618      3.579978619      3.516740078     0.1622103387     0.4443507589                3             0.27                1              145             1300             0.05                2                2                0             1002
3900            30000            56000            27000           220000            27000         2.2e-008         1.2e-009       73.6943847     0.8032128514     0.3219070037      0.970318448     0.3253012048     0.3906882591                3             0.37                1              145             1300             0.05                2                2                0             1001
11000             6800           330000           110000           750000            68000         8.2e-009         3.9e-009      72.94161135     0.2450980392      2.016279092       3.99319265             0.25     0.4168704156                3             0.37            0.925              145             1300             0.05                2                2                0             1004
6200            10000            75000             8200           150000             5100         1.5e-008           1e-009      75.10806336    0.08955505279      3.768309326      14.68263091    0.09855769231     0.4671179884                3             0.37            0.925              145             1300             0.05                2                2              0.5             1003
3900            20000           430000           110000            56000             4300         2.7e-008           1e-009      76.78779509      4.780361757      3.898279581      4.869794987     0.2037037037     0.4286898839                3             0.27                1              145             1300             0.05                2                2                0             1002
2700             3600            82000             4700           360000             6800         3.9e-008         1.2e-009      59.07375593      2.528439288      2.557465267     0.4207307699    0.05420991926     0.4814612868                3             0.37                1              145             1300             0.05                2                2                0             1001
39000             6800           330000            47000            30000             1300         2.7e-009         1.5e-009      63.03243101    0.05441066449      1.092027995      3.572503483      0.124668435     0.4584664537                3             0.37            0.925              145             1300             0.05                2                2                0             1004
3000             5100           200000            43000           470000            30000         3.3e-008         3.3e-009      65.90849851      1.691815272       1.49184734      1.029362643     0.1769547325             0.44                3             0.27                1              145             1300             0.05                2                2                0             1002
130000             4300            62000             2400           120000             1500         1.2e-009           1e-009      86.70919994     0.6211180124       31.2965397      2.299402052    0.03726708075      0.487654321                3             0.37            0.925              145             1300             0.05                2                2              0.5             1003
22000             6800           330000            68000           300000            18000         4.7e-009         2.2e-009      66.53845444     0.6141820212     0.8780834418      3.621139201     0.1708542714     0.4433962264                3             0.37                1              145             1300             0.05                2                2                0             1001
5100            3600           15000            1000           47000            1000        2.2e-008        1.5e-009       61.643365 1.48029737e-014      5.68562431      1.79107402          0.0625     0.479166667               3            0.37           0.925             145            1300            0.05               2               2               0            1004
2000             4700           360000            36000            47000             1500         5.6e-008         1.5e-009      66.54596137       2.02020202      1.184330479      7.343303281    0.09090909091     0.4690721649                3             0.27                1              145             1300             0.05                2                2                0             1002
3300            11000           110000            43000            18000             1800         2.7e-008         2.7e-009      76.28192322      3.050108932      2.163016308      2.055131906     0.2810457516     0.4090909091                3             0.37            0.925              145             1300             0.05                2                2              0.5             1003
8200             2400           430000            15000           620000             6800         1.2e-008         1.2e-009      68.22416151      3.569068077     0.9886572772       11.3805252    0.03370786517     0.4891512444                3             0.37                1              145             1300             0.05                2                2                0             1001
9100            6200           27000            2700           33000            1000        1.2e-008        1.2e-009      62.6758565      3.03030303      2.80019923     0.695621629    0.0909090909     0.470588235               3            0.37           0.925             145            1300            0.05               2               2               0            1004
6200            7500           51000           12000           30000            2200        1.5e-008        2.7e-009      75.5143775      7.07070707     0.684540417      5.54380914      0.19047619     0.431677019               3            0.37           0.925             145            1300            0.05               2               2             0.5            1003
110000             2400           910000            30000           390000             4300           1e-009           1e-009      60.11851495      2.449282533      2.853740998      2.714542254    0.03191489362      0.489094598                3             0.37                1              145             1300             0.05                2                2                0             1001
1500            12000           100000            20000            56000             3300         6.8e-008         1.2e-009      65.62042735     0.1683501684     0.8095685775      3.540766048     0.1666666667     0.4443507589                3             0.37            0.925              145             1300             0.05                2                2                0             1004
5100            13000           620000           200000           130000            11000         1.8e-008         1.8e-009      71.55594641       4.21286031     0.1114914272     0.6427692059      0.243902439     0.4219858156                3             0.37            0.925              145             1300             0.05                2                2              0.5             1003
11000             9100            51000             6800           470000            20000           1e-008         1.2e-009      67.52932805      3.921568627      5.271962781     0.6527234143     0.1176470588     0.4591836735                3             0.37            0.925              145             1300             0.05              2.1                2                0             1004
10000            16000             8200             3900           100000            12000         8.2e-009         2.2e-009      75.89945183     0.2754820937      2.620114936      1.486735555     0.3223140496     0.3928571429                3             0.37            0.925              145             1300             0.05                2                2                1             1003
5600             1500           680000            33000           300000             4700         1.5e-008         2.7e-009      77.88480858    0.01790456865      8.004357724      16.77671611    0.04628330996     0.4845749918                3             0.37            0.925              145             1300             0.05              2.1                2                0             1004
56000            1200           47000            8200           24000            1300        1.8e-009        1.2e-008      69.1047788      3.63247863      2.77573361      2.97983398     0.148550725     0.448616601               3            0.37           0.925             145            1300            0.05               2               2               1            1003
1100             5600           240000            30000           330000            13000           1e-007         1.8e-009      65.09646769      2.279202279      5.134515473     0.3617262867     0.1111111111     0.4620991254                3             0.37            0.925              145             1300             0.05              2.1                2                0             1004
91000             1000           300000             6800           750000             5600         1.2e-009         1.8e-009      57.07855479     0.3135282796      1.907468707      3.382263037     0.0221642764     0.4925886713                3             0.37            0.925              145             1300             0.05                2                2                1             1003
1800             3600           220000            47000            18000             1200         5.6e-008         4.7e-009      69.37053029      6.117353308     0.4951941397      1.404986589     0.1760299625           0.4375                3             0.37            0.925              145             1300             0.05              2.1                2                0             1004
6200             1800           750000            39000           180000             3000         1.8e-008         2.2e-009      56.36306978     0.5069708492       2.26169206     0.2907853502    0.04942965779     0.4836065574                3             0.37            0.925              145             1300             0.05                2                2                1             1003
33000           11000           33000            3600           43000            1600        3.9e-009          1e-009      83.4828756      8.60655738      18.4056139     0.222082674    0.0983606557     0.464125561               3            0.37           0.925             145            1300            0.05             2.1               2               0            1004
2200            18000            56000            16000           200000            16000         4.7e-008         1.2e-009      73.74910032 1.480297366e-014      4.747149695      4.187135807     0.2222222222     0.4259259259                3             0.37            0.925              145             1300             0.05                2                2                1             1003
3600             6800           750000           130000           750000            39000         2.7e-008         1.8e-009      66.78803875     0.3787878788      5.219918747      1.359570627     0.1477272727     0.4505703422                3             0.37            0.925              145             1300             0.05              2.1                2                0             1004
1800             1000           160000            22000           430000            18000         5.6e-008           1e-008      61.21550808     0.2849002849      2.563277427     0.2972754218     0.1208791209     0.4598214286                3             0.37            0.925              145             1300             0.05                2                2                1             1003
3300             2000           680000            47000           240000             5600         3.3e-008         2.7e-009      61.27801698      5.488963123     0.2530754985      1.351184301    0.06464924347     0.4771986971                3             0.37            0.925              145             1300             0.05              2.1                2                0             1004
13000           15000           75000           39000           18000            2400        6.8e-009        2.7e-009      80.7118917      3.07017544      2.87392116      2.32197463     0.342105263     0.382352941               3            0.37           0.925             145            1300            0.05               2               2               1            1003
13000            3300            4700            1200           27000            2000        6.8e-009        5.6e-009      73.9198245      1.69491525      7.17071581      1.61176209     0.203389831     0.431034483               3            0.37           0.925             145            1300            0.05             2.1               2               0            1004
3000             5100            16000             1500           120000             3600         3.3e-008         1.5e-009      64.16091575      1.904761905     0.1687937892      6.428552843    0.08571428571     0.4708737864                3             0.37            0.925              145             1300             0.05                2                2                1             1003
2000            6200           20000            2400           43000            1600        5.6e-008        1.5e-009      64.6737671     0.446428571      4.87483796      2.22565877     0.107142857     0.464125561               3            0.37           0.925             145            1300            0.05             2.1               2               0            1004
3000             1300           510000           100000            36000             2200         3.3e-008         1.2e-008      66.59374086      5.116741182     0.1152705186     0.7274488421     0.1639344262      0.442408377                3             0.37            0.925              145             1300             0.05                2                2                1             1003
47000             6800           620000            56000           180000             5100         2.2e-009           1e-009       58.3584319     0.2204432069      1.030904567      1.578327878    0.08284023669     0.4724473258                3             0.37            0.925              145             1300             0.05              2.1                2                0             1004
9100            12000            68000            18000           110000             8200           1e-008         1.8e-009      73.26811742     0.5672149745      1.987121608      6.720942523     0.2093023256     0.4306260575                3             0.37            0.925              145             1300             0.05                2                2                1             1003
15000             3300            20000             1300           270000             5600         6.8e-009         1.5e-009      59.73866466     0.1229599821      2.006906625      3.537442004    0.06103286385     0.4796806967                3             0.37            0.925              145             1300             0.05              1.9                2                1             1003
1300             5600           910000           110000           200000             7500         8.2e-008         1.5e-009      75.04966635     0.5446623094      2.995326845      5.399916075     0.1078431373     0.4638554217                3             0.37            0.925              145             1300             0.05              1.9               11                1             1003
1000             1100           390000           100000            33000             2400           1e-007         1.8e-008      72.16571719     0.3401360544      3.542458732     0.3860126847     0.2040816327     0.4322033898                3             0.37            0.925              145             1300             0.05              1.9               11                1             1003
8200            2400            4300            3000           11000            1800          1e-008        2.2e-008      94.5428508      2.58751903       2.1555595      4.01165165     0.410958904        0.359375               3            0.37           0.925             145            1300            0.05             1.9              11               1            1003
