33000             9100           750000           130000            82000             4300         3.3e-009         1.5e-009      82.88792326      1.171599718      5.470542028      1.979852397     0.1477272727     0.4501738123                3             0.17             0.97              145             1000             0.05                2               10                0             1001
100000             7500             7500             2000            24000             2000           1e-009         2.7e-009      86.85439162      8.771929825      2.097943597      6.074769488     0.2105263158     0.4230769231                3             0.27             0.97              145             1000             0.05                1               10                0             1002
11000            30000           300000           180000           150000            20000         6.8e-009         1.5e-009      90.69322103             6.25     0.1687937892      6.007926909            0.375     0.3823529412                3             0.17             0.97              145             1000             0.05                2               10                0             1001
10000           33000            2700            2700           10000            2000        6.8e-009        2.2e-009      91.4333333               0      1.30068049       2.0152014             0.5     0.333333333               3            0.27             0.9             145            1000            0.05               2              10               0            1003
39000           15000            3300            1200           51000            4300        2.2e-009        1.5e-009       91.419768      14.3152455      5.18029109     0.846340018     0.266666667     0.422242315               3            0.27            0.97             145            1000            0.05               1              10               0            1002
3000             1600            16000             5100           430000            39000         3.3e-008         1.5e-008      75.22228134      3.110949083       1.66797357      4.588307601     0.2417061611     0.4168443497                3             0.27             0.97              145             1000             0.05                2                2                0             1004
1200             3900           160000            91000           180000            27000         6.8e-008         1.2e-008      85.95988606      7.348384241     0.2534794287      1.340552587     0.3625498008     0.3695652174                3             0.17             0.97              145             1000             0.05                2               10                0             1001
100000             2700           180000            27000            68000             3000           1e-009         3.9e-009      81.39096208      2.898550725      3.017763471     0.8220184155     0.1304347826     0.4577464789                3             0.27              0.9              145             1000             0.05                2               10                0             1003
5100             2700           510000           240000            10000             1100         1.8e-008         1.2e-008      87.53738683      7.636363636      3.211752019      4.599181084             0.32     0.4009009009                3             0.27             0.97              145             1000             0.05                1               10                0             1002
6800            5600           18000            3900           43000            2700        1.5e-008        2.7e-009      69.2949111     0.473532894      1.55277714      5.36847818     0.178082192     0.440919037               3            0.27            0.97             145            1000            0.05               2               2               0            1004
20000             9100            91000            24000           390000            30000         4.7e-009         2.2e-009      77.95714286      2.608695652      1.754234662     0.2651413345     0.2086956522     0.4285714286                3             0.27              0.9              145             1000             0.05                2               10                0             1003
3300            33000            16000             6800           470000            51000         3.3e-008           1e-009      94.06907984      1.559454191      12.54485163      8.788534364      0.298245614     0.4021113244                3             0.27             0.97              145             1000             0.05                1               10                0             1002
4700             1000           560000           240000           100000            11000         1.8e-008         3.3e-008      78.83637912     0.9090909091    0.09796778634      3.346289032              0.3     0.4009009009                3             0.17             0.97              145             1000             0.05                2               10                0             1001
2200            4300            9100            3300           12000            1200        3.9e-008        6.8e-009      75.5251304      2.41935484     0.481891921      5.10188951     0.266129032     0.409090909               3            0.27            0.97             145            1000            0.05               2               2               0            1004
10000             1100           820000           470000            18000             2400         8.2e-009         3.9e-008       83.2993768       3.22997416      2.016279092      0.898359934     0.3643410853     0.3823529412                3             0.27              0.9              145             1000             0.05                2               10                0             1003
75000             4300            11000             4300           300000            33000         1.2e-009         6.8e-009      79.67348509      5.466428996      2.897905648      3.114485191     0.2810457516     0.4009009009                3             0.27             0.97              145             1000             0.05                1               10                0             1002
82000             6800           160000            22000            39000             1600         1.2e-009         1.5e-009      81.24481903      2.243589744      1.753693961      2.785705727     0.1208791209      0.460591133                3             0.17             0.97              145             1000             0.05                2               10                0             1001
8200             4300           750000           150000           390000            24000         1.2e-008         3.9e-009      71.77956504      4.166666667      2.808257493      3.935075661     0.1666666667     0.4420289855                3             0.27             0.97              145             1000             0.05                2                2                0             1004
24000           22000            3000            1500           51000            6200        3.3e-009        1.8e-009      84.6318645      2.50896057     0.912081699      6.73769204     0.333333333     0.391608392               3            0.27             0.9             145            1000            0.05               2              10               0            1003
6800           20000           91000           91000            6200            1300          1e-008        3.9e-009      91.9128205      3.84615385    0.0677662358    0.0325979057             0.5     0.326666667               3            0.27            0.97             145            1000            0.05               1              10               0            1002
11000             9100           100000            43000            30000             3600         8.2e-009         3.9e-009       81.2047508      6.449106449      2.556138412     0.2819207201     0.3006993007     0.3928571429                3             0.17             0.97              145             1000             0.05                2               10                0             1001
3900            11000           110000            75000            10000             1600         2.2e-008         4.7e-009      89.51817609      2.027027027      4.414678002      5.656060996     0.4054054054     0.3620689655                3             0.27              0.9              145             1000             0.05                2               10                0             1003
1800            7500           75000           39000           68000            8200        4.7e-008        4.7e-009      85.3164052      5.96919127      1.20637259       3.1978425     0.342105263     0.392388451               3            0.27            0.97             145            1000            0.05               1              10               0            1002
43000            15000            43000            16000           270000            27000         2.2e-009         1.8e-009      73.42459425     0.5649717514     0.4152857893       4.41660173     0.2711864407     0.4090909091                3             0.27             0.97              145             1000             0.05                2                2                1             1004
43000             2200           300000           130000           360000            39000         1.8e-009         1.5e-008      85.01941226      3.100775194       3.65105682      7.809458202     0.3023255814     0.4022556391                3             0.17             0.97              145             1000             0.05                2               10                0             1001
1300           22000           62000           51000           47000            8200        5.6e-008        2.7e-009      88.3776709      1.27347291      1.09256518      1.48246237     0.451327434     0.351449275               3            0.27             0.9             145            1000            0.05               2              10               0            1003
120000             3900            36000             2400            82000             1600           1e-009           1e-009      101.3534809      8.854166667      2.766193465      14.64699633           0.0625      0.480861244                3             0.27             0.97              145             1000             0.05                1               10                0             1002
11000            11000            75000            10000           160000             6800           1e-008           1e-009      67.39872132      3.806228374      5.676064745     0.2284609266     0.1176470588     0.4592326139                3             0.27             0.97              145             1000             0.05                2                2                1             1004
24000             1100           560000           160000            11000             1000         3.9e-009         2.2e-008      85.17777778      11.11111111     0.8273102377       1.16635667     0.2222222222     0.4166666667                3             0.17             0.97              145             1000             0.05                2               10                0             1001
3300             3600           330000           130000           470000            51000         2.7e-008         8.2e-009      77.63727623      3.765274226      2.225504401      1.773769164     0.2826086957     0.4021113244                3             0.27              0.9              145             1000             0.05                2               10                0             1003
20000             2200            24000             5600           180000            13000         5.6e-009         8.2e-009      90.41290934      6.375606376      4.845730986       8.92732327     0.1891891892      0.432642487                3             0.27             0.97              145             1000             0.05                1               10                0             1002
5600            5600            4700            1600           47000            4300        1.5e-008        4.7e-009      80.1709797     0.996677741      2.38181986      6.15304593     0.253968254     0.416179337               3            0.17            0.97             145            1000            0.05               2              10               0            1001
1500            11000           120000            39000            11000             1000         6.8e-008         2.2e-009      81.10598814      1.886792453      3.413590884      6.325730587     0.2452830189     0.4166666667                3             0.27              0.9              145             1000             0.05                2               10                0             1003
20000            8200            7500            6800            6800            1300        3.3e-009        8.2e-009       91.363428      1.23722431      4.46036315      1.94065208     0.475524476     0.339506173               3            0.27            0.97             145            1000            0.05               1              10               0            1002
4700             7500             8200             1800           360000            24000         2.2e-008         2.2e-009      70.76857246                4     0.5116425745      4.506929884             0.18           0.4375                3             0.27             0.97              145             1000             0.05                2                2              0.5             1004
4700            15000             7500             3600           750000           100000         1.8e-008         2.7e-009      84.17583466      8.108108108     0.7165621688      2.535583046     0.3243243243     0.3823529412                3             0.17             0.97              145             1000             0.05                2               10                0             1001
3900             8200           150000            16000            68000             2400         2.7e-008           1e-009      84.74726786      5.756358768      1.753693961      1.771577026    0.09638554217     0.4659090909                3             0.27              0.9              145             1000             0.05                2               10                0             1003
43000            8200           27000           16000           82000           12000        1.8e-009        5.6e-009      82.6857221      2.84237726      2.12507969      2.42042427     0.372093023     0.372340426               3            0.27            0.97             145            1000            0.05             1.5              10               0            1002
24000             4700           910000           160000            82000             4300         3.9e-009         2.7e-009      83.16697258    0.03622400927      5.749591356      1.735905888     0.1495327103     0.4501738123                3             0.22             0.97              145             1000             0.05                2               10                0             1001
5100             1100             2200             1000           390000            47000         1.8e-008         3.3e-008      79.27777755      3.147163121      4.288944868        1.3468183           0.3125     0.3924485126                3             0.27             0.97              145             1000             0.05                2                2              0.5             1004
56000            16000           510000           180000           200000            20000         1.8e-009         1.8e-009      81.75157245      4.347826087      6.589946309      2.904709146     0.2608695652     0.4090909091                3             0.27            0.925              145             1000             0.05                2               10                0             1003
6200           62000            2700            2200           11000            2000        1.2e-008          1e-009      87.6344322      2.72108844    0.0790684233      1.43922554     0.448979592     0.346153846               3            0.27            0.97             145            1000            0.05             1.5              10               0            1002
4700           13000           15000           12000           39000            6800        1.5e-008        4.7e-009      87.7712114     0.217864924       1.2574814      2.77392848     0.444444444     0.351528384               3            0.22            0.97             145            1000            0.05               2              10               0            1001
3600            6800            6200            3300           27000            3600        2.2e-008        5.6e-009      84.1947391      1.57894737      5.82260283     0.686846853     0.347368421     0.382352941               3            0.27           0.925             145            1000            0.05               2              10               0            1003
27000             7500           390000           130000            75000             6800         3.3e-009         3.3e-009      76.78704156     0.2450980392      2.051055905      1.227335566             0.25     0.4168704156                3             0.27             0.97              145             1000             0.05              1.5               10                0             1002
1800             3600           820000            51000           110000             2200         5.6e-008         1.2e-009      62.82012016     0.4592422503      7.860639287     0.6056842494    0.05855338691     0.4803921569                3             0.27             0.97              145             1000             0.05                2                2              0.5             1004
6200           12000           15000            5100           16000            1500        1.5e-008        2.2e-009      76.5285714      1.32669983      1.65272475      0.43037323     0.253731343     0.414285714               3            0.22            0.97             145            1000            0.05               2              10               0            1001
2700           12000            5100            1600           36000            3000        3.3e-008        1.8e-009      80.2185136      3.48258706      4.72823419      0.54925835      0.23880597     0.423076923               3            0.27           0.925             145            1000            0.05               2              10               0            1003
18000             6200             5100             1100           240000            15000         5.6e-009         2.7e-009      79.65593358     0.5376344086       3.13828652     0.7340917914     0.1774193548     0.4411764706                3             0.27             0.97              145             1000             0.05              1.5               10                0             1002
18000             2400           430000           110000           150000            11000         5.6e-009         8.2e-009      78.80053376     0.6172839506      3.232831895       1.40844357     0.2037037037     0.4316770186                3             0.27            0.925              145             1000             0.05                2               10                0             1003
30000            20000            11000             3300           510000            43000         3.3e-009         1.2e-009      79.81599829      1.073345259      5.191766827   0.008171283691     0.2307692308     0.4222423146                3             0.22             0.97              145             1000             0.05                2               10                0             1001
1100            27000           150000           120000           820000           150000         6.8e-008         2.2e-009      89.16035781      4.197530864       2.12094231      3.282300032     0.4444444444     0.3453608247                3             0.27             0.97              145             1000             0.05              1.5               10                0             1002
75000             1600           100000             2700           510000             4300         1.5e-009         1.2e-009      58.40249965      4.814202577     0.5642861687      1.231082239    0.02629016553     0.4916391211                3             0.27             0.97              145             1300             0.05                2                2              0.5             1004
82000             2400           680000           300000            33000             3900           1e-009         1.5e-008      81.62740436      3.453689168     0.7018127987      5.430575987      0.306122449     0.3943089431                3             0.27            0.925              145             1000             0.05                2               10                0             1003
8200            8200           51000           22000           22000            2700          1e-008        4.7e-009      87.8736475      8.10079486     0.819134928      7.86704044     0.301369863     0.390688259               3            0.27            0.97             145            1000            0.05             1.5              10               0            1002
2700            30000           240000           100000           360000            43000         3.3e-008         1.2e-009      82.43755562      8.116735066      2.879031038      2.691515948     0.2941176471     0.3933002481                3             0.22             0.97              145             1000             0.05                2               10                0             1001
51000           51000            7500            5100           68000           11000        1.5e-009          1e-009      85.0545929       3.1024531      2.48167433     0.738067819     0.404761905     0.360759494               3            0.27           0.925             145            1000            0.05               2              10               0            1003
56000             6200            91000            16000           300000            16000         1.8e-009         2.2e-009      80.03670886      1.557632399     0.8752638336     0.8907932468     0.1495327103     0.4493670886                3             0.27             0.97              145             1000             0.05              1.5               10                0             1002
24000            20000            22000            11000           150000            20000         3.3e-009         2.2e-009      88.12737555      5.555555556      1.553434188       8.30319254     0.3333333333     0.3823529412                3             0.22             0.97              145             1000             0.05                2               10                0             1001
22000             7500             8200             1300           430000            20000         4.7e-009         1.5e-009      64.87347615      2.631578947     0.6385500577      2.363581064     0.1368421053     0.4555555556                3             0.27             0.97              145             1300             0.05                2                2              0.5             1004
5100            9100           12000            3000           30000            2200        1.8e-008        2.2e-009      80.0617558      2.42424242     0.535042886      4.49405394             0.2     0.431677019               3            0.27           0.925             145            1000            0.05               2              10               0            1003
39000            13000            51000            68000           510000           120000         1.5e-009         8.2e-009      97.50517538                0      2.238213059       4.00993728     0.5714285714     0.3095238095                3             0.27             0.97              145             1000             0.05              1.5               10                0             1002
51000             6800           300000           150000           620000            75000         1.8e-009         5.6e-009      84.58137863      2.962962963      6.376449239      2.192917855     0.3333333333     0.3920863309                3             0.22             0.97              145             1000             0.05                2               10                0             1001
47000            11000           110000           100000            10000             2000         1.5e-009         6.8e-009      91.11428571      4.761904762      1.985625651      2.316970818     0.4761904762     0.3333333333                3             0.27            0.925              145             1000             0.05                2               10                0             1003
2200             8200           680000           240000            13000             1200         3.9e-008         3.3e-009      79.38292328      2.898550725     0.3532723029      5.235076782     0.2608695652     0.4154929577                3             0.27             0.97              145             1000             0.05              1.5               10                0             1002
56000            1500            5600            5100            8200            1600        1.2e-009        4.7e-008      89.4370208      2.68691589      2.13956449      2.49168124     0.476635514     0.336734694               3            0.22            0.97             145            1000            0.05               2              10               0            1001
5100             8200           150000            91000            18000             2700         1.5e-008         5.6e-009      84.91995979      3.503918857      4.000183098      1.231524964      0.377593361     0.3695652174                3             0.27            0.925              145             1000             0.05                2               10                0             1003
24000             3600           160000            22000            75000             3300         4.7e-009         3.3e-009      88.68338404      4.395604396      8.802339027     0.4047623505     0.1208791209     0.4578544061                3             0.27             0.97              145             1000             0.05              1.5               10                0             1002
2200           33000           62000           27000           24000            2700        3.9e-008          1e-009      78.3247191 1.48029737e-014     0.321907004      1.30929974     0.303370787     0.398876404               3            0.22            0.97             145            1000            0.05               2              10               0            1001
16000            4700           68000            7500           75000            2700        6.8e-009        1.8e-009      84.0617773      4.70934511     0.465932323       3.1273357    0.0993377483     0.465250965               3            0.27           0.925             145            1000            0.05               2              10               0            1003
2200            11000           100000            68000            36000             5600         3.9e-008         4.7e-009      89.93216193     0.2267573696      5.751601495      4.465908424     0.4047619048     0.3653846154                3             0.27             0.97              145             1000             0.05                2               10                0             1002
1500             2200           330000            12000           470000             5600         6.8e-008         1.2e-009      60.59604555     0.6683375104      5.867624145      1.728772014     0.0350877193     0.4882253995                3             0.27             0.97              145             1300             0.05                2                2              0.5             1004
2200             7500           390000            56000            68000             3000         4.7e-008         1.5e-009      80.87464789     0.9466865969      1.985625651      1.366148345     0.1255605381     0.4577464789                3             0.22             0.97              145             1000             0.05                2               10                0             1001
1300            3000           39000            9100           27000            1800        6.8e-008        5.6e-009      83.2350812     0.900900901      6.63351586      3.15156534     0.189189189          0.4375               3            0.27            0.95             145            1000            0.05               2              10               0            1003
2200             2700            13000             3000           130000             9100         4.7e-008         6.8e-009      80.97875322      4.464285714      3.356523577      2.136460025           0.1875     0.4345794393                3             0.27             0.97              145             1000             0.05                2               10                0             1002
27000           30000            6800            2700           68000            6800        3.3e-009          1e-009      78.9406699      4.21052632      2.65343034      2.11520629     0.284210526     0.409090909               3            0.27            0.97             145            1000            0.05               2              10               0            1001
4700             5100           330000            47000            36000             1600         2.2e-008         2.2e-009      63.04769579       2.34305924       1.49184734      1.001264859      0.124668435     0.4574468085                3             0.27             0.97              145             1300             0.05              2.5                2              0.5             1004
6800            33000           620000           390000            24000             3600         1.2e-008         1.5e-009      83.98236559      1.320132013      3.011982461      0.382657647     0.3861386139     0.3695652174                3             0.27             0.95              145             1000             0.05                2               10                0             1003
2400            16000           300000            75000            51000             3600         3.9e-008         1.2e-009      78.94401698      1.111111111     0.2534794287       3.13742357              0.2     0.4340659341                3             0.27             0.97              145             1000             0.05                2               10                0             1002
3900            1300           18000            3300           18000            1000        2.7e-008          1e-008      83.4892329      1.87793427       1.3906757      6.35239078     0.154929577     0.447368421               3            0.27            0.97             145            1000            0.05               2              10               0            1001
3600           10000            3600            3300            6200            1200        1.8e-008        6.8e-009       92.490558      1.69082126      5.48068722      2.46749416      0.47826087     0.337837838               3            0.27            0.95             145            1000            0.05               2              10               0            1003
15000             3300            75000            39000           120000            16000         5.6e-009         1.2e-008      80.91599587      3.070175439      0.763272562     0.8700745556     0.3421052632     0.3823529412                3             0.27             0.97              145             1000             0.05                2               10                0             1002
30000            8200           22000           11000           24000            3000        2.7e-009        4.7e-009      76.2846293               0     0.710968757      3.35143833     0.333333333     0.388888889               3            0.27            0.97             145            1300            0.05             2.5               2             0.5            1004
75000           36000            3600            2000           91000           13000        1.2e-009        1.2e-009      86.5147039      4.76190476      3.52651138      5.01200206     0.357142857           0.375               3            0.27            0.97             145            1000            0.05               2              10               0            1001
5100             2400            11000             3600           200000            22000         1.8e-008         1.2e-008      89.55111126      17.06102117      2.659439729     0.1321702199     0.2465753425     0.4009009009                3             0.27             0.95              145             1000             0.05                2               10                0             1003
11000             5100            68000             6800           390000            12000           1e-008         1.5e-009      83.17586126      1.515151515       3.76093589     0.3853139225    0.09090909091     0.4701492537                3             0.27             0.97              145             1000             0.05                2               10                0             1002
20000             5600           680000           200000            15000             1300         4.7e-009         3.9e-009      80.30688399      5.011655012      3.408427608      2.862261494     0.2272727273     0.4202453988                3             0.27             0.95              145             1000             0.05                2               10                0             1003
3900            7500           51000            7500           22000            1000        2.7e-008        1.5e-009      80.7521739      1.70940171      1.41329666      1.20969511     0.128205128     0.456521739               3            0.27            0.97             145            1000            0.05               2              10               0            1001
36000             6800           200000            43000           360000            22000         2.7e-009         2.2e-009      79.81745672      2.419254271      3.176619021      2.037037112     0.1769547325      0.442408377                3             0.27             0.97              145             1000             0.05                2               10                0             1002
5100             1800           120000             4700           160000             2000         2.2e-008         1.5e-009      61.14342616      1.764234162      2.234347056      4.610367132     0.0376904571      0.487654321                3             0.27             0.97              145             1300             0.05              2.5                2              0.5             1004
4700             2400           130000            24000            39000             2200         2.2e-008         5.6e-009      81.54754516      2.715466352      1.400305816      4.471884631     0.1558441558     0.4466019417                3             0.27             0.95              145             1000             0.05                2               10                0             1003
2200             6800           680000            62000           180000             5100         4.7e-008           1e-009      82.34473258      1.088737382      1.030904567      1.501248601    0.08355795148     0.4724473258                3             0.27             0.97              145             1000             0.05                2               10                0             1001
3300            12000           150000            51000           750000            68000         2.7e-008         2.2e-009      77.97263936      1.741293532      1.189490004      3.885597791     0.2537313433     0.4168704156                3             0.27             0.97              145             1000             0.05                2               10                0             1002
2000             1200             9100             1100           470000            18000         5.6e-008         8.2e-009      84.89029458      2.541757444      6.178819167     0.7976945248     0.1078431373     0.4631147541                3             0.27             0.95              145             1000             0.05                2               10                0             1003
22000            1300           18000            2400           82000            3300        4.7e-009        8.2e-009      66.8292829      1.36660725      3.83184067      3.73482777     0.117647059     0.461313013               3            0.27            0.97             145            1300            0.05             2.5               2             0.5            1004
1000             1500           620000           390000            43000             6800         8.2e-008         3.3e-008      86.09599306      5.736750146     0.6584722676      1.814199311     0.3861386139     0.3634538153                3             0.27             0.97              145             1000             0.05                2               10                0             1002
82000            10000            16000             7500           100000            12000           1e-009         3.3e-009      82.58620687     0.7092198582      5.985598969       1.27107826     0.3191489362     0.3928571429                3             0.27             0.97              145             1000             0.05                2               10                0             1001
33000            15000            51000            18000           130000            12000         2.7e-009         1.8e-009      77.47047432      2.898550725      1.413296656      3.322627817     0.2608695652     0.4154929577                3             0.27             0.95              145             1000             0.05                2               10                0             1003
8200             1800           160000           110000            91000            15000           1e-008         3.3e-008      90.73680556      4.032921811      7.414086409      2.268864779     0.4074074074      0.358490566                3             0.27             0.97              145             1000             0.05                2               10                0             1002
4300             1200            56000             6800           560000            22000         2.2e-008         8.2e-009      87.34873389      4.516502606      3.393762866      6.218537147     0.1082802548     0.4621993127                3             0.27             0.97              145             1000             0.05                2               10                0             1001
3000            27000           120000            47000            62000             6800         3.3e-008         1.2e-009      82.97845727      5.083949748      6.934515883      2.673218954     0.2814371257     0.4011627907                3             0.27             0.95              145             1000             0.05                2               10                0             1003
27000            4300           22000            3600           30000            1500        3.9e-009        2.7e-009      83.1802754          1.5625      1.78290415      5.54218018        0.140625     0.452380952               3            0.27            0.97             145            1000            0.05               2              10               0            1002
1200             1300           150000            33000           130000             8200         8.2e-008         1.2e-008      67.79977102      1.306144209      2.022399418      2.371870318     0.1803278689     0.4406657019                3             0.27             0.97              145             1300             0.05              2.5                2              0.5             1004
62000            24000           430000           510000            20000             4700           1e-009         3.9e-009      95.58397318      4.956994115      1.279207333      1.235859237     0.5425531915     0.3097165992                3             0.27             0.97              145             1000             0.05                2               10                0             1001
75000             1000            47000            30000           560000            82000           1e-009         4.7e-008      84.28845329      1.678808996      2.577824378      2.308792108     0.3896103896     0.3722741433                3             0.27             0.95              145             1000             0.05                2               10                0             1003
2000            3300           24000            7500           36000            3000        4.7e-008        6.8e-009      77.8822955      3.17460317    0.0355019221      1.23112916     0.238095238     0.423076923               3            0.27            0.97             145            1000            0.05             2.5              10               0            1002
27000            33000           560000           240000            24000             2700         3.3e-009           1e-009      77.98764045      1.111111111      1.553434188    0.08640300559              0.3     0.3988764045                3             0.27             0.97              145             1000             0.05                2               10                0             1001
20000             2000           100000            12000           270000            10000         5.6e-009         4.7e-009      64.20596795 1.480297366e-014      5.601452605      1.461658202     0.1071428571     0.4642857143                3             0.27             0.97              145             1300             0.05              2.5                2              0.5             1004
5600            24000           240000           240000            39000             8200         1.2e-008         3.3e-009      92.09215929       4.06504065    0.03397511707      1.289291224              0.5     0.3262711864                3             0.27             0.97              145             1000             0.05                2               10                0             1003
33000            39000             9100             4300           300000            36000         2.7e-009           1e-009      83.24770765     0.1658374793      6.472441128      2.645158796     0.3208955224     0.3928571429                3             0.27             0.97              145             1000             0.05              2.5               10                0             1002
2000             3300           200000            33000           100000             5100         4.7e-008         3.9e-009      82.51843581      2.709753429      3.336088721       4.32511507     0.1416309013     0.4514747859                3             0.27             0.97              145             1000             0.05                2               10                0             1001
6800            13000           150000            82000            20000             2700         1.2e-008         3.3e-009      81.55055446     0.9472115794      1.164425638      2.343944211     0.3534482759     0.3810572687                3             0.27             0.97              145             1000             0.05                2               10                0             1003
22000           24000           82000           39000           10000            1200        3.9e-009        1.5e-009      79.6171192     0.275482094     0.799043341     0.355918182      0.32231405     0.392857143               3            0.27            0.97             145            1000            0.05             2.5              10               0            1002
2200            18000           910000           430000            20000             2400         3.9e-008         1.8e-009      80.92278102     0.1658374793      4.566989704      4.814687309     0.3208955224     0.3928571429                3             0.27             0.97              145             1300             0.05              2.5                2              0.5             1004
5600             3000           470000            82000           240000            13000         1.8e-008         4.7e-009      80.89413871      3.632478632      1.746876744      1.953136962     0.1485507246     0.4486166008                3             0.32             0.97              145             1000             0.05                2               10                0             1001
30000            12000           300000           110000            20000             2000         3.3e-009         2.2e-009      80.90618653       1.62601626      1.553434188      7.597095622     0.2682926829     0.4090909091                3             0.27             0.97              145             1000             0.05                2               10                0             1003
18000           24000            8200            5600           62000           10000        3.9e-009        2.2e-009      89.4722764      2.60869565      4.98778412      5.09367103     0.405797101     0.361111111               3            0.27            0.97             145            1000            0.05             2.5              10               0            1002
13000            30000           910000           430000           430000            56000         6.8e-009         1.2e-009      84.63103919      7.169509595      1.812835898      4.194611102     0.3208955224     0.3847736626                3             0.32             0.97              145             1000             0.05                2               10                0             1001
6200           56000            2700            2000           15000            2400        1.2e-008          1e-009      86.9969675      2.83687943      1.37213281       2.1538937     0.425531915     0.362068966               3            0.27            0.97             145            1000            0.05               2              10               0            1003
6800            5100            2700            2700           20000            4300          1e-008        1.5e-008      93.5184802      5.81395349      2.31850541       1.7681042             0.5     0.323045267               3            0.27            0.97             145            1000            0.05             2.5              10               0            1002
9100             1100             5600             3000           160000            22000           1e-008         3.9e-008       85.2608658      3.805496829      5.545611992      3.113948133     0.3488372093     0.3791208791                3             0.32             0.97              145             1000             0.05                2               10                0             1001
24000            1200           10000            1600           91000            4300        3.9e-009          1e-008      83.3173469      1.89788827      3.22980712      4.89960699     0.137931034     0.454879328               3            0.27            0.97             145            1000            0.05               2              10               0            1003
4300           16000           82000           27000           22000            1800        2.2e-008        1.5e-009      85.7693909      9.17431193      4.45810416      1.31793551     0.247706422     0.424369748               3            0.27            0.97             145            1000            0.05             2.5              10               0            1002
36000            36000             3900             4300           750000           160000         1.8e-009         2.2e-009      92.95660681     0.5843495935      2.612294175      2.385483621     0.5243902439     0.3241758242                3             0.32             0.97              145             1000             0.05                2               10                0             1001
51000             4700             7500             3000           330000            36000         1.8e-009         6.8e-009      77.56127423      3.174603175      2.951308062      0.071786389     0.2857142857     0.4016393443                3             0.27             0.97              145             1000             0.05                2               10                0             1003
36000             5600            75000            39000           360000            47000         2.2e-009         6.8e-009      82.77709698      1.250466592       4.71448221     0.9217158435     0.3421052632     0.3845208845                3             0.27             0.97              145             1000             0.05              2.5               10                0             1002
12000           33000           91000           75000           27000            4700        5.6e-009        1.8e-009      90.8558225      1.57651884      5.10159807      2.49101036     0.451807229     0.351735016               3            0.27            0.97             145            1000            0.05               2              10               0            1003
5100           75000            8200           10000           68000           16000        1.2e-008        1.2e-009      96.4664284      3.84615385      4.02283862      1.63941375     0.549450549      0.30952381               3            0.32            0.97             145            1000            0.05               2              10               0            1001
5100            22000            43000            15000           130000            12000         1.8e-008         1.2e-009      76.64929577      2.011494253      1.776416503      1.060919981     0.2586206897     0.4154929577                3             0.27             0.97              145             1000             0.05              2.5               10                0             1002
2200            11000           750000           270000            16000             1600         3.9e-008         2.7e-009      79.57217174      2.941176471     0.2992872477      6.021904355     0.2647058824     0.4090909091                3             0.27             0.97              145             1000             0.05                2               10                0             1003
8200            10000           560000           160000           430000            33000         1.2e-008         2.2e-009      81.73879184      3.928170595      5.238051056      1.063650315     0.2222222222     0.4287257019                3             0.32             0.97              145             1000             0.05                2               10                0             1001
75000             2000           390000           160000            15000             1600         1.2e-009         1.5e-008      77.55235487     0.6060606061    0.03514623968      1.946246525     0.2909090909     0.4036144578                3             0.27             0.97              145             1000             0.05              2.5               10                0             1002
1800             1000           180000            75000            20000             2400         4.7e-008         3.3e-008      84.23848058      8.496732026      4.344269558     0.7835953869     0.2941176471     0.3928571429                3             0.27             0.97              145             1000             0.05                2               10                0             1003
11000            22000           220000           120000            39000             5100         6.8e-009         1.8e-009      86.11570908      1.730103806      5.748575114      3.937642166     0.3529411765     0.3843537415                3             0.32             0.97              145             1000             0.05                2               10                0             1001
18000             5100            15000             1200           270000             7500         5.6e-009         1.2e-009      92.43721958      8.641975309      6.797946974      0.517767563    0.07407407407      0.472972973                3             0.27             0.97              145             1000             0.05              2.5               10                0             1002
1870             3320           931000           154000           976000            49900         5.6e-008         3.9e-009      65.15768272      2.731053505      2.269677144     0.8274255224     0.1419354839     0.4513597817                3             0.27             0.97              145             1300             0.05              2.5                2              0.5             1004
18000             3900           160000            36000            43000             2700         5.6e-009         3.9e-009      82.57180807      3.628117914      1.852786001      5.151786435     0.1836734694     0.4409190372                3             0.27             0.97              145             1000             0.05                2               10                0             1003
82000            3300           11000            4700           16000            1800          1e-009          1e-008      79.2953337      1.32106629      2.62011494      4.07138751     0.299363057     0.398876404               3            0.32            0.97             145            1000            0.05               2              10               0            1001
5600            7500           36000           15000           91000           10000        1.5e-008        3.9e-009      81.3488118     0.980392157       6.4380372      1.40484449     0.294117647     0.400990099               3            0.27            0.97             145            1000            0.05               3              10               0            1002
30000             9100           100000            12000           430000            16000         3.3e-009           1e-009      81.65215875     0.4464285714      2.283976016      2.839602693     0.1071428571     0.4641255605                3             0.27                1              145             1000             0.05                2               10                0             1003
7500            27000            11000             5600           100000            13000         1.2e-008         1.5e-009      82.58250216      2.255174544      4.951987176      1.511998158     0.3373493976     0.3849557522                3             0.27             0.97              145             1000             0.05                3               10                0             1002
18000           11000           56000           16000           20000            1600        5.6e-009        1.8e-009      82.4356545               0     0.763272562      7.44306187     0.222222222     0.425925926               3            0.32            0.97             145            1000            0.05               2              10               0            1001
27000             9100           160000            75000           620000            75000         3.3e-009         3.9e-009      79.22352671      1.418439716       1.56193529      2.115202202     0.3191489362     0.3920863309                3             0.27                1              145             1000             0.05                2               10                0             1003
1000            3300           62000           27000           13000            1500        8.2e-008          1e-008      79.3196813      2.24719101      3.92743025      2.54310407     0.303370787     0.396551724               3            0.27            0.97             145            1000            0.05               3              10               0            1002
1500            11000            36000             6800           430000            24000         6.8e-008         1.2e-009      81.69479893     0.1817237799      2.471825534      4.581142539     0.1588785047     0.4471365639                3             0.27                1              145             1000             0.05                2               10                0             1003
1100            11000           560000           390000            10000             1600         6.8e-008         4.7e-009      85.35952813     0.7894736842       2.37267522     0.4919752293     0.4105263158     0.3620689655                3             0.32             0.97              145             1000             0.05                2               10                0             1001
68000            10000           470000           180000            91000             9100         1.2e-009         2.7e-009      81.22568638      1.538461538      7.224287779      2.253546573     0.2769230769     0.4090909091                3             0.27                1              145             1000             0.05                2               10                0             1003
27000            5100            3900            1500           75000            7500        3.3e-009        5.6e-009      76.7868687      1.85185185      0.22949325      0.57142483     0.277777778     0.409090909               3            0.27            0.97             145            1000            0.05               3              10               0            1002
27000            24000           220000            68000           910000            82000         3.3e-009           1e-009      79.53623076      4.787714544      3.314645249      1.772297521     0.2361111111     0.4173387097                3             0.37             0.97              145             1000             0.05                2               10                0             1001
39000            1600           22000            9100           75000            8200        2.2e-009        1.8e-008      80.8230674       1.0378271      5.86600833       2.8523781     0.292604502     0.401442308               3            0.27               1             145            1000            0.05               2              10               0            1003
62000            24000           130000            56000            47000             5100         1.2e-009         1.5e-009      89.27839209      2.523016375       1.30212896      13.55973277     0.3010752688     0.4021113244                3             0.27             0.97              145             1000             0.05                3               10                0             1002
1300           10000           91000           68000           43000            7500        5.6e-008        5.6e-009      88.7284543      4.01118099      4.10146286     0.188041582     0.427672956     0.351485149               3            0.37            0.97             145            1000            0.05               2              10               0            1001
3900            12000            13000             6200           200000            24000         2.2e-008         2.7e-009      83.97193763      0.462962963      4.566989704      5.127566972     0.3229166667     0.3928571429                3             0.27                1              145             1000             0.05                2               10                0             1003
12000            24000           130000            75000            20000             2700         6.8e-009         1.8e-009      82.79109273      2.529358627      1.508202591     0.7798828972     0.3658536585     0.3810572687                3             0.27             0.97              145             1000             0.05                3               10                0             1002
47000            15000            16000             6800           200000            22000         1.8e-009         2.2e-009       78.9025748     0.3189792663    0.09796778634      3.587923309      0.298245614     0.4009009009                3             0.37             0.97              145             1000             0.05                2               10                0             1001
30000             5100           560000            75000           150000             6200         3.3e-009         2.2e-009      85.64493083     0.8128016256      2.914064195      7.000136806     0.1181102362     0.4603072983                3             0.27                1              145             1000             0.05                2               10                0             1003
5100            13000           300000           150000           220000            27000         1.8e-008         2.7e-009      84.84812594      1.646090535      1.776416503      7.045966696     0.3333333333     0.3906882591                3             0.27             0.97              145             1000             0.05                3               10                0             1002
18000            20000           130000            75000            51000             7500         4.7e-009         2.2e-009      84.72472896       4.87804878     0.0355019221      3.381827147     0.3658536585     0.3717948718                3             0.27                1              145             1000             0.05                2               10                0             1003
27000            2700           39000           11000           82000            6800        3.3e-009        8.2e-009      80.0476322      4.23529412      3.19056765      3.27942813            0.22     0.423423423               3            0.37            0.97             145            1000            0.05               2              10               0            1001
27000            11000            51000            13000           110000             8200         3.9e-009         1.8e-009      81.58628513      2.400914634      4.833535662      3.990143715         0.203125     0.4306260575                3             0.27             0.97              145             1000             0.05                3               10                0             1002
2400           10000           13000            8200           10000            1500        3.3e-008        4.7e-009       83.735767      1.15303983      1.03090457     0.825168727     0.386792453     0.369565217               3            0.27               1             145            1000            0.05               2              10               0            1003
3000             3600           750000           240000           750000            68000         3.3e-008         6.8e-009      77.82091462      2.792632204      2.653430342      3.641240855     0.2424242424     0.4168704156                3             0.37             0.97              145             1000             0.05                2               10                0             1001
1500           22000           22000            7500           51000            4700        5.6e-008        1.2e-009      79.9396468      0.43274432      2.59882004      5.97770788     0.254237288      0.41561939               3            0.27               1             145            1000            0.05               2              10               0            1003
10000             2400             3000             1200           470000            47000         8.2e-009         1.2e-008       81.7664031      4.761904762      3.565942441      3.958036414     0.2857142857     0.4090909091                3             0.27             0.97              145             1000             0.05                3               10                0             1002
63400            1100           73200            6040           53600            1330        1.6e-009        5.6e-009      64.9400652      4.93712828     0.292528586      4.50925885    0.0762241292     0.475787366               3            0.27            0.97             145            1300            0.05             2.5               2             0.5            1004
11000            12000            91000            27000           510000            43000         8.2e-009         1.8e-009       79.3224102       1.91170674      4.698178738     0.3520365584     0.2288135593     0.4222423146                3             0.37             0.97              145             1000             0.05                2               10                0             1001
30000            6200           82000           33000           18000            1800        2.7e-009        4.7e-009      83.3543531       5.2173913      3.59358161      4.93863713     0.286956522     0.409090909               3            0.27            0.97             145            1000            0.05               3              10               0            1002
1000             7500           390000           200000            12000             1600         8.2e-008         5.6e-009       82.4728558       3.95480226     0.9720181135      3.684454336     0.3389830508     0.3823529412                3             0.37             0.97              145             1000             0.05                2               10                0             1001
1800            2700           47000           43000           20000            3900        3.9e-008        2.7e-008      89.5597861      2.40265907      1.75620797      1.79946776     0.477777778     0.336820084               3            0.37            0.97             145            1000            0.05               2              10               0            1001
118000             1620            71500             4530           392000             8250           1e-009         3.3e-009      65.99764805      3.646088665      8.071834916     0.3827618078    0.05958174405     0.4793878826                3             0.27             0.97              145             1300             0.05              2.5                2              0.5             1004
2700            12000           220000            75000           120000            11000         3.3e-008         2.2e-009      77.38308494     0.9244992296     0.6460733862       3.38003151     0.2542372881     0.4160305344                3             0.37             0.97              145             1000             0.05                2               10                0             1001
7500           18000            6200            3300           82000           11000        1.2e-008        2.2e-009       83.806076      2.10526316      2.35709307      5.49719087     0.347368421      0.38172043               3            0.37            0.97             145            1000            0.05               2              10               0            1001
1180             3650           105000             4420            80600             1180         9.1e-008           1e-009      66.68295347      6.681144649      2.728529279      4.676694219    0.04039480899     0.4855710443                3             0.27             0.97              145             1300             0.05              2.5                2              0.5             1004
1500             2400           360000            75000           390000            24000         6.8e-008         6.8e-009      65.70380711     0.8620689655      3.231661152     0.1657991308     0.1724137931     0.4420289855                3             0.37            0.925              145             1300             0.05                2                2              0.5             1004
3600             5100            82000            18000           130000             8200         2.7e-008         3.3e-009      66.44242416       1.12195122      1.171957976      2.081944781             0.18     0.4406657019                3             0.37            0.925              145             1000             0.05                2                2                0             1003
27000            15000           820000           150000            43000             2400         3.9e-009           1e-009      68.87984141      2.491408935      5.391161751     0.8196968121     0.1546391753     0.4471365639                3             0.37            0.925              145             1300             0.05                2                2                0             1002
15000             9100            39000             8200           360000            22000         6.8e-009         1.8e-009      66.40820062     0.5521314843      3.745024662     0.4973254247     0.1737288136      0.442408377                3             0.37            0.925              145             1300             0.05                2                2                0             1001
