5600            1200           20000           11000           75000           10000        1.5e-008        3.3e-008      48.8843257     0.537634409     0.763272562      2.86093129      0.35483871     0.382352941               3            0.37           0.945             150            1300           0.005             1.9              13               1            1001
1500             6200            20000            13000           430000            68000         4.7e-008         8.2e-009       54.2041564      3.832442068      5.716561936      5.648225824     0.3939393939     0.3634538153                3             0.37            0.945              150             1300            0.005              1.9               13                1             1001
5100            5600            3300            1800           16000            2000        1.5e-008        6.8e-009      53.4678066      5.88235294      4.25477389      2.64551453     0.352941176     0.388888889               3            0.37           0.945             150            1300           0.005             1.9              13               1            1001
9100             1600            27000             9100           820000            75000           1e-008         1.5e-008      51.82690708       0.27085257      2.995326845      2.020637608     0.2520775623     0.4162011173                3             0.37            0.945              150             1300            0.005              1.9               13                1             1001
22000             1800            11000             1100           390000            13000         4.7e-009         4.7e-009      74.04692082      6.060606061      1.754186428      3.909223171    0.09090909091     0.4677419355                3             0.37            0.945              150             1300            0.005              1.9               14                1             1001
36000             1600            43000             6200           750000            33000         2.7e-009         6.8e-009      66.86097913      0.332594235      2.659439729      2.824637501     0.1260162602     0.4578544061                3             0.37            0.945              150             1300            0.005              1.9               14                1             1001
33000            1600           68000            8200           82000            3000        3.3e-009        5.6e-009      64.8655567      1.63312919      2.54460455      1.94586598     0.107611549     0.464705882               3            0.37           0.945             150            1300           0.005             1.9              14               1            1001
18000            18000           430000           220000           680000            91000         4.7e-009         2.2e-009      85.28083211      4.412510566     0.5897194701     0.8134000117     0.3384615385     0.3819714656                3             0.37            0.945              150             1300            0.005              1.9               14                1             1001
1200            12000           160000            91000           330000            47000         6.8e-008         3.9e-009      84.74648832      3.062925603      2.804964045      3.226725109     0.3625498008      0.375331565                3             0.37            0.945              150             1300            0.005              1.9               14                1             1001
3000             1000           430000           180000           470000            51000         2.7e-008         3.3e-008      100.2149521     0.4821600771      1.404402716      6.597562408     0.2950819672     0.4021113244                3             0.37            0.945              150             1300            0.005              1.9               14                1             1001
75000            24000             4700             1500           270000            24000         1.2e-009           1e-009      89.96730018      1.209677419      2.097943597       1.08443505     0.2419354839     0.4183673469                3             0.37            0.945              150             1300            0.005              1.9               14                1             1001
3000           36000            4700            4700           91000           18000        2.2e-008        2.2e-009      112.388613     0.925925926      2.09584364      4.12953778             0.5     0.334862385               3            0.37           0.945             150            1300           0.005             1.9              14               1            1001
