4700            51000             2200            12000           430000           150000         4.7e-009         8.2e-009      20.07078057      8.920187793      2.199368013       8.13747706     0.8450704225     0.2413793103                3             0.26                1              400              250              0.9
3300            4300           11000           39000           13000            3900          1e-008        5.6e-008      15.1651156      12.6666667      2.20975194     0.262451833            0.78     0.269230769               3            0.26               1             400             250             0.9
1000             1500           910000           330000            12000             1100         8.2e-008         1.8e-008      15.59996003       5.64516129      2.408744753      6.860049083     0.2661290323     0.4160305344                3             0.26                1              400              250              0.9
4300            22000            68000           110000            13000             3600         1.2e-008         5.6e-009      11.45231963      5.014565127      5.043576754      1.267434314     0.6179775281     0.2831325301                3             0.26                1              400              250              0.9
2000           680000            11000           130000           820000           330000         5.6e-009         1.2e-009      17.03903272      7.099362419      5.612685197      3.933622818     0.9219858156     0.2130434783                3             0.26                1              400              250              0.9
7500             5100            22000            11000           560000            68000         1.2e-008         6.8e-009      10.15114195      2.614379085     0.7295991905      6.188330616     0.3333333333     0.3917197452                3             0.26                1              400              250              0.9             32.5
20000            13000            56000           240000           110000            43000         1.5e-009         2.7e-008      8.804467769      3.834066625      3.028563027       1.76530738     0.8108108108     0.2189542484                3             0.26                1              400              250              0.9             32.5
16000           39000           18000            8200           33000            4300        5.6e-009          1e-009      12.7083042      9.50352092      2.81234997     0.356757552     0.312977099     0.384718499               3            0.26               1             400             250             0.9            32.5
15000            7500            6200            8200           18000            4300        4.7e-009        1.2e-008      20.0631567      1.56115418      2.34324399      14.6897805     0.569444444     0.307174888               3            0.26               1             400             250             0.9            32.5
3900            15000            12000           390000             9100             4700         1.5e-009         1.5e-007      21.28303657      5.049221975     0.3036697929      14.48194982     0.9701492537     0.1594202899                3             0.26                1              400              250              0.9             32.5
