22000             8200             7500            15000           270000            82000         1.8e-009         1.8e-008      27.14787917       4.60704607      14.72403255      7.106182317     0.6666666667     0.2670454545                3              0.1              0.9              350              200              0.5
5100           430000            24000           220000           130000            51000         3.3e-009         1.5e-009      15.91483909      6.664523733      4.322101397      4.480194512     0.9016393443     0.2182320442                3              0.1              0.9              350              200              0.5
4300            33000            39000           510000            11000             5100         2.7e-009         3.3e-008      10.67862249      2.246508804      3.621796363      4.373015745     0.9289617486     0.1832298137                3              0.1              0.9              350              200              0.5
24000            1200            7500           20000           68000           20000        1.8e-009        1.5e-007      15.8886739      6.66666667      2.11806479      6.45812948     0.727272727     0.272727273               3             0.1             0.9             350             200             0.5
3900            10000           750000           680000            56000            11000         1.8e-008         6.8e-009      7.185956424      3.454121636      2.093818677      1.489105556     0.4755244755     0.3358208955                3              0.1              0.9              350              200              0.5
1800            30000            22000            82000           120000            43000         1.8e-008           1e-008      7.234166044     0.3726893262      3.365856003      3.177837013     0.7884615385      0.236196319                3              0.1                1              350              200              0.5
1300             7500           180000           390000            27000             8200         3.9e-008         2.2e-008      11.63084975      2.096705178       4.10428006      4.936240469     0.6842105263     0.2670454545                3              0.1                1              350              200              0.5
3000             7500           430000           750000           430000           120000         1.8e-008         1.8e-008      5.933370414      2.895480226      1.527999084      1.372628276     0.6355932203     0.2818181818                3              0.1                1              350              200              0.5
3300            18000            11000           120000             7500             3300         3.9e-009         4.7e-008       5.98633094     0.0693962526      1.174720874      4.311103466     0.9160305344     0.1944444444                3              0.1                1              350              200              0.5
11000            5600           51000           68000           12000            2700        5.6e-009        1.8e-008      8.02291895       3.7037037      4.19442791     0.113443031     0.571428571     0.316326531               3             0.1               1             350             200             0.5
16000            16000           120000           360000            82000            27000         2.2e-009         1.2e-008       17.0294575     0.9259259259      11.08953309      4.558180438             0.75      0.252293578                3              0.1             1.25              350              200              0.5
8200             4700            91000           470000            56000            22000         3.3e-009         8.2e-008      7.658883321     0.9884945714      2.317288296      3.957364048     0.8377896613     0.2179487179                3              0.1             1.25              350              200              0.5
3600           5600           5600           5600           5100           1000       1.5e-008       1.5e-008      23.954035      1.6666667      4.6401903      16.042889            0.5     0.33606557              3            0.1           1.25            350            200            0.5
1100            11000           620000           200000            47000             4300           1e-007         2.2e-009      21.26020419      3.006239365      6.695754592      10.50746385      0.243902439     0.4161793372                3              0.1             1.25              350              200              0.5
3900            3900           18000           22000           15000            3300        1.8e-008        2.7e-008      16.3230621      1.66666667      13.1742126      1.34743892            0.55     0.319672131               3             0.1            1.25             350             200             0.5
3600            36000            51000           220000            30000            11000         8.2e-009           1e-008      12.49645332     0.8610086101      6.514034022      4.655827896     0.8118081181     0.2317073171                3              0.1              0.9              350              200              0.9
1100           75000            1300           12000           16000            6200        1.2e-008          1e-008      23.3890091      7.68857628     0.427734657      13.8842711     0.902255639     0.220720721               3             0.1             0.9             350             200             0.9
2400            62000            11000            36000           820000           360000         1.8e-008         4.7e-009       30.1610947      16.31205674      6.010831242      7.125642473     0.7659574468     0.1949152542                3              0.1              0.9              350              200              0.9
1600             2400            15000             3000           430000            24000         5.6e-008         5.6e-009      15.59305589      5.092592593       8.35223787      1.952932206     0.1666666667     0.4471365639                3              0.1              0.9              350              200              0.9
8200            1300           51000           62000           75000           15000        6.8e-009        6.8e-008      19.0935088      9.73451327      1.37890928      7.25462383     0.548672566     0.333333333               3             0.1             0.9             350             200             0.9
5100            68000           360000           820000            39000            11000         8.2e-009         2.2e-009      13.83208025      5.290190036      6.862753347       1.52648806     0.6949152542             0.28                3              0.1                1              350              200              0.9
7500           30000            1500            4300           10000            3300        5.6e-009        6.8e-009      9.51296194     0.400557297      1.22719832      7.16836939      0.74137931     0.251879699               3             0.1               1             350             200             0.9
2000            10000           150000           160000           300000            68000         3.3e-008         8.2e-009      11.84033421      6.894370651      2.999488189      1.769523064     0.5161290323     0.3152173913                3              0.1                1              350              200              0.9
3900           12000            1300           12000           20000            8200        3.9e-009        5.6e-008      5.49498563      3.42930497     0.800530198      1.15013678     0.902255639     0.209219858               3             0.1               1             350             200             0.9
10000           24000           16000           47000           39000           13000        3.9e-009          1e-008      8.63224803     0.529100529      5.02231498      2.80075684     0.746031746            0.25               3             0.1               1             350             200             0.9
8200           18000           39000           39000           22000            4700        8.2e-009        4.7e-009      12.1477243      5.31914894       2.4654047      3.96651878             0.5     0.323970037               3             0.1            1.25             350             200             0.9
18000           110000           220000           510000             5100             1600         2.7e-009         1.8e-009       12.5734663      2.482876712      9.125024839     0.8777861366      0.698630137     0.2611940299                3              0.1             1.25              350              200              0.9
5100           10000            3900           62000           47000           22000        1.5e-009        1.5e-007      25.8081084      1.64160574      1.64972218      20.4698005     0.940819423      0.18115942               3             0.1            1.25             350             200             0.9
1200            3900            3900            7500           24000            7500        3.9e-008        4.7e-008      23.9728127      7.89473684      3.94035364      11.0342929     0.657894737     0.261904762               3             0.1            1.25             350             200             0.9
3900           100000            30000           820000           120000            47000         1.2e-009         1.8e-008      31.71352379      14.25949103      8.522367208      8.119695957     0.9647058824     0.2185628743                3              0.1             1.25              350              200              0.9
1100            22000            39000           200000            56000            24000         2.2e-008         1.8e-008      15.45627278      7.019990702      6.433039057       1.82113002     0.8368200837              0.2                3              0.1              0.9              350              200                2
6200           200000           100000           620000            27000            12000         3.9e-009         2.7e-009      14.46783885      6.712962963      7.145310002     0.5541508002     0.8611111111     0.1923076923                3              0.1              0.9              350              200                2
2200           11000            1800            7500           10000            3900        1.2e-008        2.7e-008      18.7759086      4.19079129       12.246355       2.1261475     0.806451613      0.21942446               3             0.1             0.9             350             200               2
2400             4300             6200            24000           560000           200000         1.2e-008         6.8e-008      9.590017386     0.6622516556      3.646869152      4.800815071     0.7947019868     0.2368421053                3              0.1              0.9              350              200                2
12000            4700           39000           27000           24000            4300        6.8e-009        1.2e-008      14.6203264      10.2536998     0.696602546      3.33638553     0.409090909     0.348056537               3             0.1             0.9             350             200               2
4700            22000            39000           240000            24000            10000         4.7e-009         2.2e-008      4.822885557      2.508960573     0.6440290036      1.518087254     0.8602150538     0.2058823529                3              0.1                1              350              200                2
3900            33000             3600            91000           240000           110000         1.5e-009         5.6e-008      8.881670114       2.02447306      3.629150224      2.934588027     0.9619450317     0.1857142857                3              0.1                1              350              200                2
9100            39000           100000           680000             3000             1100         2.2e-009         1.2e-008      9.945049191      8.313908314     0.4363329657       1.08618901     0.8717948718     0.2317073171                3              0.1                1              350              200                2
9100            4300            3300           51000            3300            1500        1.2e-009        3.3e-007      19.9024961     0.184162063      13.8001968      5.38012476     0.939226519          0.1875               3             0.1               1             350             200               2
20000            27000           100000           360000           220000            75000         1.5e-009           1e-008      11.99652297      2.608695652      3.251629296      5.578361838     0.7826086957     0.2457627119                3              0.1                1              350              200                2
6800            33000           100000           560000            56000            24000         3.9e-009         1.5e-008      15.88213794      5.723905724      9.062632127     0.9960000808     0.8484848485              0.2                3              0.1             1.25              350              200                2
10000            51000           470000           330000             8200             1300         8.2e-009           1e-009      7.880514011     0.4807692308      2.007493284      4.902046814           0.4125     0.3631578947                3              0.1             1.25              350              200                2
2700            47000           330000           330000           270000            62000         2.7e-008         1.8e-009      16.19064545      10.75268817      2.885260706      2.320633247              0.5      0.313253012                3              0.1             1.25              350              200                2
16000            10000           130000            68000           120000            15000         5.6e-009         3.9e-009      10.70440031       3.03030303      4.810547303      2.603227252     0.3434343434     0.3888888889                3              0.1             1.25              350              200                2
1500             8200             8200           220000             4300             2200         4.7e-009         2.7e-007      19.53124258      5.054046158      8.879965082      5.088392131     0.9640666082     0.1615384615                3              0.1             1.25              350              200                2
2200             3000           240000           620000            68000            24000         1.8e-008         6.8e-008      15.23450237      7.881136951      5.198275238      1.959172888     0.7209302326     0.2391304348                3              0.1              0.9              350              200                3
18000           20000            8200           13000           51000           13000        3.3e-009        6.8e-009      14.2900328     0.628930818       10.598657      2.78404095     0.613207547        0.296875               3             0.1             0.9             350             200               3
2200           470000             3600            24000            10000             4300         8.2e-009         1.2e-009       19.2602883      3.606336367      3.465733475       11.0801986     0.8695652174     0.1993006993                3              0.1              0.9              350              200                3
9100             1800           220000           160000           470000            82000         8.2e-009         3.3e-008      8.560304932      5.519897304     0.1478813704      2.629569325     0.4210526316     0.3514492754                3              0.1              0.9              350              200                3
1600            13000            12000            39000           130000            56000         2.2e-008         2.2e-008      23.04606625      15.33613445      4.108963018      3.273607983     0.7647058824     0.1989247312                3              0.1              0.9              350              200                3
8200            51000             1600             3600           200000            62000         4.7e-009         3.9e-009       19.1037364      2.481389578      1.211003723       14.0103119     0.6923076923     0.2633587786                3              0.1                1              350              200                3
3300           11000           33000           47000           62000           16000        1.8e-008          1e-008       6.4560902         4.53125    0.0218108872      1.73002664          0.5875     0.294871795               3             0.1               1             350             200               3
10000            22000            43000            82000           270000            75000         4.7e-009         6.8e-009      6.071746297     0.5866666667     0.0355019221      4.954161553            0.656     0.2826086957                3              0.1                1              350              200                3
1600             4300             3600           160000             3900             1800         2.2e-009         8.2e-007      12.35173823      3.232817169      2.946412136      5.611371746       0.97799511     0.1842105263                3              0.1                1              350              200                3
1500            15000           270000           430000             5100             1200         3.9e-008         8.2e-009      17.26864746              7.5      8.988729337     0.7090164716     0.6142857143     0.3095238095                3              0.1                1              350              200                3
4700            8200            3600           39000            7500            3000        2.7e-009          1e-007      14.6789045      6.80751174      1.32380602      5.95235155     0.915492958     0.214285714               3             0.1            1.25             350             200               3
5100           30000           27000           62000           24000            8200          1e-008        6.8e-009      19.3115623      8.81520051       8.7944503       1.5471923     0.696629213     0.245341615               3             0.1            1.25             350             200               3
8200            11000            51000           240000             2400             1000         3.3e-009         3.9e-008      19.60261639      6.529209622       4.64972091      7.657896231      0.824742268     0.2058823529                3              0.1             1.25              350              200                3
6200           15000           24000           75000           51000           16000        5.6e-009        1.5e-008      9.13049551      5.74494949     0.858828081       2.2970163     0.757575758      0.26119403               3             0.1            1.25             350             200               3
4300           18000            7500           47000            3900            1500        4.7e-009        2.7e-008      10.6419809      3.48623853     0.406231399      6.13591908     0.862385321     0.222222222               3             0.1            1.25             350             200               3
