120000      509999.9999999999                  47000                 100000                 680000                  27000               1.2e-008               1.5e-008                    Inf      493.7683715461494      99.04448921417442      443.7860571117369     0.6802721088435374       6.82794339351702                      3                    0.9                      1                      1                     30                     30                     60
5600                  11000                 430000                 150000                 680000                   4300 6.800000000000001e-009               2.2e-009                    Inf      1271.892542101043      58.30886195627996      957.7244143506803     0.2586206896551724       27.6180139901105                      3                    0.9                      1                      1                     30                     30                     60
5600                  11000                 430000                 150000                 680000                   4300 6.800000000000001e-009               2.2e-009                    Inf      1271.892542101043      58.30886195627996      957.7244143506803     0.2586206896551724       27.6180139901105                      3                    0.9                      1                      1                     30                     30                     60
470000                   5600                 270000                  36000                 160000                   3300 8.199999999999999e-009               1.5e-009                    Inf      94.05822935234696       87.2965520623835      58.59904617260917     0.1176470588235294     0.0411190918285427                      3                    0.9                      1                      2                     30                     30                     60
47000                  47000                  68000                 150000                  20000                  68000               2.7e-007               1.5e-009                    Inf      70.31840259039396      68.97339757886277      92.15407084485648     0.6880733944954128  0.0008394355132845158                      3                    0.9                      1                      2                     30                     30                     60
47000                  47000                  68000                 150000                  20000                  68000               2.7e-007               1.5e-009                    Inf      70.31840259039396      68.97339757886277      92.15407084485648     0.6880733944954128  0.0008394355132845158                      3                    0.9                      1                      2                     30                     30                     60
4300             5100           330000           150000           150000            12000           1e-007           1e-009      104.4139554           40.625      3.872906916      59.56873565           0.3125    0.03481278161                3              0.9                1                1               30               30               60
5100            3300            4700           39000           13000           18000        6.8e-009        1.2e-007      113.668835      48.7668446       59.807652      4.15814398     0.892448513     0.043745641               3             0.9               1               3              30              30              60
5100            2200           62000           36000           24000            5600        6.8e-008        2.2e-008      91.0770407      35.2769679      40.6601698      14.6593739     0.367346939     0.113182106               3             0.9               1               3              30              30              60
5100            2200           62000           36000           24000            5600        6.8e-008        2.2e-008      91.0770407      35.2769679      40.6601698      14.6593739     0.367346939     0.113182106               3             0.9               1               3              30              30              60
6200           680000             2000            16000            16000            10000           1e-008           1e-009      69.60479972      22.96296296      38.72125826      6.965680059     0.8888888889    0.06600955795                3              0.9                1                4               30               30               60
2000           4300           2000           7500           9100           8200       2.2e-008       5.6e-008      131.55936      44.480103      46.774896      39.489582     0.78947368    0.025305793              3            0.9              1              4             30             30             60
2000           4300           2000           7500           9100           8200       2.2e-008       5.6e-008      131.55936      44.480103      46.774896      39.489582     0.78947368    0.025305793              3            0.9              1              4             30             30             60
27000           430000             3300            56000             1100             2400         1.5e-009         1.5e-009      132.8798231      54.09406033      45.45278495      32.34612589     0.9443507589    0.04250114777                3              0.9                1                2               30               30               60
2400           150000             2700            24000             2400             1500         2.7e-008         1.2e-009      90.52040753      22.09737828       16.5028058      51.00749937     0.8988764045    0.01384768337                3              0.9                1                5               30               30               60
2200           620000            47000           820000           300000           110000           1e-008           1e-009       44.1773027      17.50725246      17.48200602      8.144503407     0.9457900807    0.09775073953                3              0.9                1                5               30               30               60
2200           620000            47000           820000           300000           110000           1e-008           1e-009       44.1773027      17.50725246      17.48200602      8.144503407     0.9457900807    0.09775073953                3              0.9                1                5               30               30               60
200000                 240000                  27000                   4300                   2400                   1300               3.3e-008               3.9e-009                    Inf      86.96649463422627      95.28722946128771      3.766826443071619     0.1373801916932907     0.0688304463656871                      3                    0.9                      2                      1                     30                     30                     60
1600             1800             2000            27000           240000           150000         2.2e-008         4.7e-007      49.10228249      19.31034483      27.08722506      1.717951028     0.9310344828    0.05572708356                3              0.9                2                1               30               30               60
1800             1800            20000            12000           180000            47000         4.7e-008         1.8e-008        130.60333      39.62765957       55.3370744      34.99665715            0.375     0.2669388722                3              0.9                1                3               30               30               60
1600             1800             2000            27000           240000           150000         2.2e-008         4.7e-007      49.10228249      19.31034483      27.08722506      1.717951028     0.9310344828    0.05572708356                3              0.9                2                1               30               30               60
2000            20000           270000           560000           390000           120000         4.7e-008         5.6e-009      37.62084476      4.417670683      13.95898737      18.38399829     0.6746987952     0.1854896169                3              0.9                2                2               30               30               60
1800            16000            27000           270000            18000             8200           1e-008         1.8e-008      64.30087931       3.17812269      49.19638791      10.90226515     0.9090909091     0.1150126543                3              0.9                2                2               30               30               60
1800            16000            27000           270000            18000             8200           1e-008         1.8e-008      64.30087931       3.17812269      49.19638791      10.90226515     0.9090909091     0.1150126543                3              0.9                2                2               30               30               60
33000                  39000                   2200                  39000                  91000                  36000 5.599999999999999e-007               3.9e-008                    Inf      11.31337648327938      98.11185607590002      95.19287007047105     0.9466019417475728  0.0002501904328278583                      3                    0.9                      2                      3                     30                     30                     60
680000                  22000                  36000                   3300                  51000                   2200               2.2e-008               6.8e-007                    Inf      32.31552162849873      99.77903942546492      550.6390902717147    0.08396946564885496      9.707971719235291                      3                    0.9                      1                      4                     30                     30                     60
15000           10000            4700           82000            9100           33000        1.8e-009        1.5e-007      150.423865       59.780038        50.60136      38.8231631     0.945790081     0.273514078               3             0.9               2               3              30              30              60
15000           10000            4700           82000            9100           33000        1.8e-009        1.5e-007      150.423865       59.780038        50.60136      38.8231631     0.945790081     0.273514078               3             0.9               2               3              30              30              60
1100            5600            1100            7500           47000           18000        3.3e-008        5.6e-008       32.505254      4.97416021      7.68630902      18.8152323     0.872093023     0.157459509               3             0.9               2               4              30              30              60
30000           240000           390000           620000             3600             2000         6.8e-009           1e-009      113.4319572      42.70627063      46.38785611      23.61482177     0.6138613861     0.1091473154                3              0.9                2                4               30               30               60
30000           240000           390000           620000             3600             2000         6.8e-009           1e-009      113.4319572      42.70627063      46.38785611      23.61482177     0.6138613861     0.1091473154                3              0.9                2                4               30               30               60
150000                  33000                  39000                 160000                  51000                  30000               4.7e-008               4.7e-008                    Inf      27.63819095477385      96.30856510264133      73.07986878995807     0.8040201005025126   0.004697087269038068                      3                    0.9                      2                      5                     30                     30                     60
330000                 130000                   2700                   1100                   6200                 220000               6.8e-008               1.5e-009                    Inf      90.07894736842106      54.67822657323868       42.6297872787537     0.2894736842105263    0.07777285273897089                      3                    0.9                      1                      5                     30                     30                     60
1100                  51000                  36000                 220000                 560000                  12000               3.9e-008               1.8e-007                    Inf      1265.451388888889      96.28749750264788      1929.932608509279               0.859375      98.69332449776783                      3                    0.9                      2                      5                     30                     30                     60
1100                  51000                  36000                 220000                 560000                  12000               3.9e-008               1.8e-007                    Inf      1265.451388888889      96.28749750264788      1929.932608509279               0.859375      98.69332449776783                      3                    0.9                      2                      5                     30                     30                     60
1000           360000             1300            13000            56000           130000         1.2e-007           1e-009      125.7016048      56.64335664      16.66911967      51.45659962     0.9090909091    0.02343792571                3              0.9                3                1               30               30               60
68000                  22000                  68000                   1000                 150000                 160000               5.6e-008 8.199999999999999e-007                    Inf      99.06400966183574      98.01679432283022       507.016770096382    0.01449275362318841     0.2971527090147128                      3                    0.9                      3                      1                     30                     30                     60
68000                  22000                  68000                   1000                 150000                 160000               5.6e-008 8.199999999999999e-007                    Inf      99.06400966183574      98.01679432283022       507.016770096382    0.01449275362318841     0.2971527090147128                      3                    0.9                      3                      1                     30                     30                     60
620000                  30000                   8200                   7500                 390000                  22000               2.2e-007               3.3e-009                    Inf      198.2049797336422      98.97133399873408      91.14898285402678     0.4777070063694268    0.00174935107176813                      3                    0.9                      2                      1                     30                     30                     60
620000                 200000                  82000                 120000                   1800                 220000               3.9e-007               6.8e-007                    Inf      80.03600360036003      99.02971879909281      379.8800943209471      0.594059405940594      5.663679695078895                      3                    0.9                      3                      2                     30                     30                     60
4700             1000           150000            20000            91000             3900         1.2e-007         2.7e-009      76.81123527      4.575163399      15.56737242       56.5076496     0.1176470588    0.04340279604                3              0.9                3                2               30               30               60
4700             1000           150000            20000            91000             3900         1.2e-007         2.7e-009      76.81123527      4.575163399      15.56737242       56.5076496     0.1176470588    0.04340279604                3              0.9                3                2               30               30               60
1800                 620000      819999.9999999999                 120000                   3300                  82000               3.3e-007               3.9e-008                    Inf      95.57343020238713      79.06616883708709      3981.511809442496     0.1276595744680851      384.2446458979134                      3                    0.9                      3                      3                     30                     30                     60
47000             2700            62000           150000           560000           180000         4.7e-009         1.5e-008      67.09533865      3.039832285      4.602498358      58.72358847     0.7075471698    0.02187236542                3              0.9                3                3               30               30               60
47000             2700            62000           150000           560000           180000         4.7e-009         1.5e-008      67.09533865      3.039832285      4.602498358      58.72358847     0.7075471698    0.02187236542                3              0.9                3                3               30               30               60
2200             1200           150000           680000             9100             3600         6.8e-008         6.8e-008      72.01178885      3.659080768       9.39757753      58.11686115     0.8192771084    0.01899229381                3              0.9                2                2               30               30               60
2400                   1600                 100000                  24000                   1300                  51000               5.6e-008               4.7e-007                    Inf      93.38393421884884      213.5631285132645      1632.796345199001     0.1935483870967742      71.33287941901061                      3                    0.9                      3                      4                     30                     30                     60
1300            68000             6800            47000           510000           390000         6.8e-008         1.5e-008      109.9036249      32.79954246      53.65091887      22.52951264      0.873605948    0.05004493823                3              0.9                3                4               30               30               60
1300            68000             6800            47000           510000           390000         6.8e-008         1.5e-008      109.9036249      32.79954246      53.65091887      22.52951264      0.873605948    0.05004493823                3              0.9                3                4               30               30               60
30000                   1200                  68000                 430000                   3900                   3000               6.8e-008 5.599999999999999e-007                    Inf      33.80187416331994      88.07801049315923      77.64265232727419     0.8634538152610441   0.001629948896605886                      3                    0.9                      3                      5                     30                     30                     60
130000                  12000                   2000                  56000                 110000                  15000               3.3e-009 4.700000000000001e-009                    Inf      168.1992337164751      62.21658395076111      94.55878424690096     0.9655172413793103  0.0005625297485636908                      3                    0.9                      3                      5                     30                     30                     60
130000                  12000                   2000                  56000                 110000                  15000               3.3e-009 4.700000000000001e-009                    Inf      168.1992337164751      62.21658395076111      94.55878424690096     0.9655172413793103  0.0005625297485636908                      3                    0.9                      3                      5                     30                     30                     60
9100            5600           18000           18000            6200            2400        1.2e-008        6.8e-009      101.337235      40.2777778      53.5571767      6.90654719             0.5    0.0957333885               3             0.9               2               3              30              30              60
30000           51000            2000            5600           51000           16000        3.9e-009          1e-009      61.4034537      2.85087719       15.402978      42.3693813     0.736842105    0.0433750326               3             0.9               4               1              30              30              60
30000            11000           680000           430000           200000            39000         1.8e-008         1.5e-009       105.844557      20.86702087      25.54419126      59.01767212     0.3873873874    0.02828532876                3              0.9                4                1               30               30               60
30000            11000           680000           430000           200000            39000         1.8e-008         1.5e-009       105.844557      20.86702087      25.54419126      59.01767212     0.3873873874    0.02828532876                3              0.9                4                1               30               30               60
7500             1200            18000           510000             2000             7500         5.6e-009         8.2e-007      154.5948826      59.21717172      51.60501617      42.75936273     0.9659090909    0.04742288961                3              0.9                4                2               30               30               60
240000            30000            18000            18000           240000            82000           1e-009           1e-009      87.34673418      34.55284553      9.636506551      42.61698893              0.5    0.04039316565                3              0.9                4                2               30               30               60
39000            1300           11000           24000           91000           24000        6.8e-009        3.3e-008      89.6194206      9.52380952      23.3716189      56.0100926     0.685714286    0.0281853263               3             0.9               2               4              30              30              60
240000            30000            18000            18000           240000            82000           1e-009           1e-009      87.34673418      34.55284553      9.636506551      42.61698893              0.5    0.04039316565                3              0.9                4                2               30               30               60
18000             1100            56000            13000           120000            11000         6.8e-009         6.8e-009      87.17188009      25.20860782      59.25179764      2.305352048     0.1884057971     0.2177167884                3              0.9                4                3               30               30               60
43000                 180000                   3000                  56000                  33000                   4700 8.199999999999999e-007               2.2e-008                    Inf      153.7805024642385      99.49169621487164      92.70498597486204     0.9491525423728814   0.000998705304007267                      3                    0.9                      4                      3                     30                     30                     60
43000                 180000                   3000                  56000                  33000                   4700 8.199999999999999e-007               2.2e-008                    Inf      153.7805024642385      99.49169621487164      92.70498597486204     0.9491525423728814   0.000998705304007267                      3                    0.9                      4                      3                     30                     30                     60
1800           430000             6200           240000           470000           130000         6.8e-009           1e-009      115.1224696      49.97188027      15.37665457      48.76192526     0.9748172218    0.03719232096                3              0.9                4                4               30               30               60
22000            24000            75000            11000           470000            47000         1.2e-008           1e-009      119.6947755      53.10077519      36.77154828      29.35229919     0.1279069767     0.3422458085                3              0.9                2                5               30               30               60
5600            33000             5600            39000           390000           120000         1.5e-008         2.7e-009      83.71126427      23.87892377       2.04693288      56.88636659     0.8744394619    0.02460157129                3              0.9                4                4               30               30               60
5600            33000             5600            39000           390000           120000         1.5e-008         2.7e-009      83.71126427      23.87892377       2.04693288      56.88636659     0.8744394619    0.02460157129                3              0.9                4                4               30               30               60
2400           100000             5100           390000             4700             1300         6.8e-009         1.5e-008      156.8940303      51.86028853      46.50204611      57.51903811     0.9870918755    0.02556562174                3              0.9                4                5               30               30               60
360000                   2700                  51000                  27000                   1500                 750000               2.2e-007               1.8e-007                    Inf      88.43846153846154      42.63798372447787      62.29264516967488     0.3461538461538462      0.655843933902636                      3                    0.9                      4                      5                     30                     30                     60
360000                   2700                  51000                  27000                   1500                 750000               2.2e-007               1.8e-007                    Inf      88.43846153846154      42.63798372447787      62.29264516967488     0.3461538461538462      0.655843933902636                      3                    0.9                      4                      5                     30                     30                     60
1500            30000            20000            62000           470000           220000         3.3e-008         4.7e-009      77.10722675      20.95343681      30.33780034      24.91854564      0.756097561     0.1413464044                3              0.9                5                1               30               30               60
8200           15000           27000           24000           15000            6200        1.8e-008        2.2e-009      115.684155      46.3630614      46.6122296      22.1754239     0.470588235    0.0628521803               3             0.9               3               1              30              30              60
18000           130000             1300            24000            75000            68000         3.9e-009         4.7e-009      118.3530282      33.50383632      26.82633714      57.07198299     0.9486166008   0.002255192747                3              0.9                5                1               30               30               60
18000           130000             1300            24000            75000            68000         3.9e-009         4.7e-009      118.3530282      33.50383632      26.82633714      57.07198299     0.9486166008   0.002255192747                3              0.9                5                1               30               30               60
3600             7500            39000           330000            18000            24000         3.9e-008         3.3e-008      110.0434501      47.83197832      1.413296656      59.89812274     0.8943089431   0.005743430571                3              0.9                5                2               30               30               60
1800           560000            13000            91000           750000           270000         2.7e-008           1e-009      89.40928729      10.18518519      42.11590683      36.01554552            0.875     0.2176497485                3              0.9                5                2               30               30               60
1800           560000            13000            91000           750000           270000         2.7e-008           1e-009      89.40928729      10.18518519      42.11590683      36.01554552            0.875     0.2176497485                3              0.9                5                2               30               30               60
3000                  13000                   3300                   3900                 100000                 300000 6.800000000000001e-009               3.9e-009                    Inf      75.92592592592592      757.1596041776628      135.9851644094407     0.5416666666666666     0.6961124727668846                      3                    0.9                      5                      3                     30                     30                     60
16000             1300           110000           300000             3900             2000         3.9e-009         6.8e-008       86.9068748      28.04878049      53.45618549      4.596924721     0.7317073171    0.07327677486                3              0.9                3                2               30               30               60
560000            22000           110000           130000           470000            91000         1.2e-009         1.8e-009      126.2693069      11.30952381      57.07012051       57.3172263     0.5416666667    0.03076958403                3              0.9                5                3               30               30               60
560000            22000           110000           130000           470000            91000         1.2e-009         1.8e-009      126.2693069      11.30952381      57.07012051       57.3172263     0.5416666667    0.03076958403                3              0.9                5                3               30               30               60
120000                   7500                 620000                 150000                  82000                 300000               2.7e-008               6.8e-008                    Inf      91.73160173160174      76.31811653656845      10.03335483173396     0.1948051948051948     0.1727355981848643                      3                    0.9                      5                      4                     30                     30                     60
1600             1100             2000           120000           180000            91000         5.6e-009         5.6e-007      114.9745991      2.359935147      52.32115155      59.29630305     0.9836065574    0.01360280389                3              0.9                5                4               30               30               60
1600             1100             2000           120000           180000            91000         5.6e-009         5.6e-007      114.9745991      2.359935147      52.32115155      59.29630305     0.9836065574    0.01360280389                3              0.9                5                4               30               30               60
4700                 430000                   1500                 680000                 300000                 120000 4.700000000000001e-009               3.9e-007                    Inf      16.40988016629983      94.77019208430315      39.96464125949225     0.9977989728539985     0.0386169032046585                      3                    0.9                      3                      3                     30                     30                     60
240000             4700            68000           240000             7500             3000           1e-009         1.8e-008      98.21211083      9.090909091      29.35859557      58.96534422     0.7792207792    0.01804117473                3              0.9                5                5               30               30               60
509999.9999999999                 360000                   1000                 470000                   5600                   6800               1.2e-009               2.7e-009                    Inf      39.34474001914992      77.26098066471708       99.2396304311747     0.9978768577494691 1.398778744828004e-006                      3                    0.9                      5                      5                     30                     30                     60
509999.9999999999                 360000                   1000                 470000                   5600                   6800               1.2e-009               2.7e-009                    Inf      39.34474001914992      77.26098066471708       99.2396304311747     0.9978768577494691 1.398778744828004e-006                      3                    0.9                      5                      5                     30                     30                     60
8200                 330000                 240000                  24000                   3300                  36000               1.2e-007               2.7e-007                    Inf       96.6919191919192      94.38592757692612      4311.110585037372    0.09090909090909091      404.7539558556742                      3                    0.9                      3                      4                     30                     30                     60
1800            36000           160000           300000             8200             1500         2.7e-008         1.2e-009      118.3434587      40.57971014      48.55895197       28.2685148      0.652173913     0.2841078341                3              0.9                3                5               30               30               60
12000                   8200                 110000                   1300                  24000                  56000 5.599999999999999e-007               1.5e-008                    Inf      99.44380267830402      73.25938864612799      58.73605076707054    0.01168014375561545     0.0170271350629778                      3                    0.9                      4                      1                     30                     30                     60
10000                  16000                   1300                 270000                 120000                 330000 8.199999999999999e-009               2.2e-009                    Inf      54.76326106624669      391.2563992029569      98.99599035993315     0.9952082565425728 1.176041250238353e-005                      3                    0.9                      4                      2                     30                     30                     60
330000            82000            10000            24000            13000            15000           1e-009           1e-009      119.1403565      56.07843137       3.92743025      58.42552605     0.7058823529   0.003086494436                3              0.9                4                3               30               30               60
82000             7500            33000            24000           120000            18000           1e-008         3.3e-009      122.5515086      7.602339181      56.73156041      57.76359279     0.4210526316    0.03296362999                3              0.9                4                4               30               30               60
6200             1800            36000             3600           390000            18000         3.9e-008         1.2e-009      121.9252448      31.31313131      49.61290542      40.82849071    0.09090909091    0.07980830358                3              0.9                4                5               30               30               60
160000                   1800                   7500                  16000                   6800                  82000               5.6e-009               3.3e-007                    Inf      75.42293720809549      24.24254541328344      38.19718597198402     0.6808510638297872     0.4043368125662304                      3                    0.9                      5                      1                     30                     30                     60
3600                 160000                  24000                   5100                   3300                  12000               2.2e-008 8.199999999999999e-007                    Inf      92.55154639175257      90.58491432354988      11442.00917325856     0.1752577319587629      1893.784949466647                      3                    0.9                      5                      2                     30                     30                     60
2200                 110000                   3600                   1600                 270000                  27000               3.3e-007               6.8e-008                    Inf      12.82051282051283      97.84026223514273      993.1740875994168     0.3076923076923077      24.44378698224853                      3                    0.9                      5                      3                     30                     30                     60
4700                  68000                 750000                  10000                   3000                  51000               2.7e-009               2.2e-009                    Inf      99.53560371517027      1406.079802939602      1991.923020226975    0.01315789473684211      97.24759827901217                      3                    0.9                      5                      4                     30                     30                     60
270000                   2700                 750000                   3600                   6200                  22000               1.2e-007               3.9e-007                    Inf      99.79588882455124      94.86726388752645      38.73407779852094   0.004777070063694267      0.052575805785925                      3                    0.9                      5                      5                     30                     30                     60
