13000             1000            10000            11000           560000           110000         5.6e-009         8.2e-008       19.9385559      6.349206349      8.704400485       3.65938059     0.5238095238     0.3358208955                4              0.1                1              250              400                1
3900           390000            27000           240000            10000             4300         3.9e-009         1.8e-009      8.618895712     0.3571117498     0.9999587338      5.603316477     0.8988764045     0.1993006993                4              0.1                1              250              400                2
36000            2200            3900            2400            6800            1000        2.2e-009        2.2e-008      5.65799234     0.952380952      1.42190899      2.30086831     0.380952381     0.371794872               4             0.3               1             250             400               1
18000           47000           20000           62000           13000            3900        2.2e-009        4.7e-009      20.8133247      9.21409214      6.79583756      3.43460603     0.756097561     0.269230769               4             0.3               1             250             400               2
360000                  39000                 150000                  39000                 130000                 910000               2.7e-007 6.800000000000001e-009                    Inf      92.13907785336356      91.70628209998462       1028.21260752697     0.2063492063492063                  0.375                      4                    0.7                      1                    250                    400                      1
1200             1300            82000           560000            62000            27000         1.8e-008         3.9e-007      11.15832336      4.157532403     0.3633880504      5.062272316     0.8722741433     0.1966292135                4              0.7                1              250              400                2
