4700           47000            2400           22000           36000           16000        3.3e-009        1.5e-008      5.52090014      2.32240437      1.46783995      1.57332348     0.901639344     0.192307692               3            0.26               1             400             250             0.1            32.5
8200           18000            1800            4300            3900            1200        5.6e-009          1e-008       5.9807023     0.136612022      2.89507461      2.68092334     0.704918033     0.264705882               3            0.26               1             400             250             0.1            32.5
4700            20000            36000           100000           220000            68000         8.2e-009           1e-008      5.028842353      3.806228374     0.7841864834     0.3985704504     0.7352941176     0.2638888889                3             0.26                1              400              250              0.1             32.5
2700            18000             1600            15000           180000            75000         5.6e-009         3.9e-008      4.765510258      2.409638554     0.2828037041      1.884607272     0.9036144578     0.2058823529                3             0.26                1              400              250              0.1             32.5
4300           11000            6200           20000           13000            4300        8.2e-009        2.2e-008      4.83674916      2.37292147      0.90908326      1.41340402     0.763358779     0.251445087               3            0.26               1             400             250             0.1            32.5
6200             5100             1600             3000           330000            91000         8.2e-009         2.7e-008      2.545693713     0.5733397038     0.1118161818      1.691398025      0.652173913      0.283847981                3             0.26                1              400              250              0.1             32.5
6800            18000           100000           470000           430000           150000         3.9e-009         1.8e-008      8.768085368      6.276803119      1.408011885     0.9847912402     0.8245614035     0.2413793103                3             0.26                1              400              250              0.1             32.5
10000            3300            6200            6200            8200            1600        6.8e-009        2.2e-008      3.43319797      2.08333333    0.0576802844      1.17471305             0.5     0.336734694               3            0.26               1             400             250             0.1            32.5
7500            11000           390000           470000             6800             1500         8.2e-009         8.2e-009      2.170504126     0.8010335917     0.3622705789     0.9156363231     0.5465116279     0.3192771084                3             0.26                1              400              250              0.1             32.5
18000            30000           300000           820000            82000            27000         2.2e-009         6.8e-009      3.544659837       1.47707231      1.609054664     0.4168480572     0.7321428571      0.252293578                3             0.26                1              400              250              0.1             32.5
3300             2000           470000           680000           820000           200000         1.8e-008         5.6e-008      4.211240767     0.5217391304      3.633525824    0.05088710257     0.5913043478     0.3039215686                3             0.26                1              400              250              0.1             32.5
12000           36000            2000            7500           24000            9100        2.7e-009        8.2e-009      5.18998706       4.2799306     0.208491682     0.637786163     0.789473684     0.225075529               3            0.26               1             400             250             0.1            32.5
3000            11000             3000           110000             3600             1800         1.8e-009         2.7e-007      21.57156506      2.654867257       11.1351465      7.074137547     0.9734513274     0.1666666667                3             0.26             1.25              400              250              0.1             32.5
4300           300000            11000           360000             5100             2200           1e-009         6.8e-009      19.46545352      7.326635629       11.6084489     0.4821536291     0.9703504043      0.198630137                3             0.26             1.25              400              250              0.1             32.5
1200            56000             5600            47000           100000            43000         1.5e-008         1.2e-008      6.394492293     0.9490965897      5.107154375     0.3074921166     0.8935361217     0.1993006993                3             0.26             1.25              400              250              0.1             32.5
1200             3900           100000            82000           180000            30000         5.6e-008         1.5e-008      12.57230932      5.128205128      3.629150224      3.468139974     0.4505494505     0.3571428571                3             0.26             1.25              400              250              0.1             32.5
2200             5600             1300            56000           430000           240000         1.8e-009         6.8e-007       16.2100207      9.055652511       3.17322616       3.61922003     0.9773123909     0.1417910448                3             0.26             1.25              400              250              0.1             32.5
3300            16000            27000           360000           100000            43000         3.3e-009         5.6e-008      11.49603968      3.118802957      5.654114555      2.475565609     0.9302325581     0.1993006993                3             0.26             1.25              400              250              0.1             32.5
3900           680000            22000           220000            62000            30000         3.9e-009         1.2e-009      8.177379288      7.070707071     0.6254379171     0.4374857273     0.9090909091     0.1739130435                3             0.26             1.25              400              250              0.1             32.5
3900           36000            6800           56000           43000           18000        3.9e-009        1.8e-008      14.0664083     0.731304553      3.72180035      8.73936669     0.891719745     0.204918033               3            0.26            1.25             400             250             0.1            32.5
16000            16000           150000           100000           130000            20000         4.7e-009         3.3e-009      5.748470423 1.480297366e-014     0.9310473337      4.379475536              0.4     0.3666666667                3             0.26             1.25              400              250              0.1             32.5
39000             1100            75000           110000           820000           200000         1.5e-009           1e-007      4.199261367      1.081081081      2.016279092      1.001728359     0.5945945946     0.3039215686                3             0.26             1.25              400              250              0.1             32.5
3600            43000            18000           430000            13000             5600         1.8e-009         3.9e-008      6.875256915      6.265943878     0.2047790484     0.3677581721     0.9598214286     0.1989247312                3             0.26             1.25              400              250              0.1             32.5
3000            9100           62000           33000           91000           12000        2.7e-008        4.7e-009      7.18023354     0.614035088      1.80758896      4.32600863     0.347368421     0.383495146               3            0.26            1.25             400             250             0.1            32.5
