3600            13000             6800           100000            62000            30000         2.7e-009         8.2e-008      13.67856838      4.286308781      8.760996845     0.5738752288      0.936329588     0.1739130435                3             0.26                1              400              250              0.9
12000           180000           130000           560000           470000           150000         2.2e-009         1.5e-009      18.88533113      11.81964573      6.495924167     0.5179647586     0.8115942029     0.2580645161                3             0.26                1              400              250              0.9
10000            15000            39000           120000             4700             1800         3.3e-009         1.5e-008      24.77082414      9.154437456      14.30342037      1.193605739     0.7547169811     0.2230769231                3             0.26                1              400              250              0.9
30000           75000           20000           91000           22000            8200          1e-009        4.7e-009       8.1761443     0.644546986      5.51224522      1.83577464      0.81981982     0.228476821               3            0.26               1             400             250             0.9
1500            20000            36000           360000            39000            15000           1e-008         3.3e-008      15.43682711      9.090909091     0.7990433408       5.04261334     0.9090909091     0.2222222222                3             0.26                1              400              250              0.9
