5600           24000            4700           10000            4700            3000          1e-008        1.2e-008      47.2967243      41.7989418     0.124779496      4.88454814     0.680272109      0.11038961               3             0.1               1             400             450               4
2000            47000             3000             2400           910000           180000         3.9e-008         1.5e-009      15.47290378      10.28806584      4.546066823     0.5807010162     0.4444444444     0.3348623853                3              0.1                1              400              450                4
1500            1800            6800            2400           62000            6800        5.6e-008        1.5e-008      23.4888631      12.0204604      10.6769591     0.719494236     0.260869565     0.401162791               3             0.1               1             400             450               4
8200            30000             1500             6200           110000            39000         3.3e-009         1.2e-008      20.28503806      2.541902542      3.984588827      12.50776971     0.8051948052     0.2382550336                3              0.1                1              400              450                4
18000           110000            13000            91000            16000             7500         1.2e-009         5.6e-009      15.51374947      8.611111111      5.534431973      1.243823983            0.875     0.1808510638                3              0.1                1              400              450                8
22000            11000            82000            22000           750000            62000         3.9e-009         2.2e-009      19.41585363      7.650951199     0.4231911355      10.31064664     0.2115384615     0.4236453202                3              0.1                1              400              450                8
68000             2000           430000            36000           360000            10000         1.8e-009         3.9e-009      20.57548191      4.721030043      14.15186377      1.547807357    0.07725321888      0.472972973                3              0.1                1              400              450                8
36000           39000            9100           10000           56000           12000        1.8e-009        2.2e-009      4.12568461      1.10529378      1.19348211      1.66082612     0.523560209     0.323529412               3             0.1               1             400             450               8
6200           220000             5100            36000           180000            75000         3.3e-009         2.7e-009       11.5255201     0.7299270073      6.810179843      3.623102956     0.8759124088     0.2058823529                3              0.1                1              400              450               16
3900            8200            2700           10000           30000           10000          1e-008        3.9e-008      23.3555072      4.98687664      17.7211958     0.588577029     0.787401575            0.25               3             0.1               1             400             450              16
82000            11000            51000            13000           750000            56000           1e-009         1.8e-009      19.46484988      2.548363095      7.930451078       8.16912337         0.203125     0.4305210918                3              0.1                1              400              450               16
4300           300000             1600            30000           120000            56000         2.2e-009         5.6e-009      16.91607249     0.5424954792      13.75710766      2.378608494     0.9493670886     0.1818181818                3              0.1                1              400              450               16
39000             4700           220000           820000           110000            39000           1e-009         6.8e-008      18.45285565     0.4109138725      15.11706188      2.658981726     0.7884615385     0.2382550336                3              0.1                1              400              450               24
24000             1000            11000            36000           620000           200000         1.8e-009         3.3e-007      35.69819129      4.680851064      24.29223221      6.113734556     0.7659574468      0.256097561                3              0.1                1              400              450               24
5600            13000           820000           620000           100000            20000         1.5e-008         5.6e-009      23.50897156      13.88888889      8.981474263     0.5805530995     0.4305555556     0.3333333333                3              0.1                1              400              450               24
1500             1300             1500             1200           510000            91000         4.7e-008         4.7e-008      6.773707778      2.157102157      2.433161296      1.984949386     0.4444444444     0.3485856905                3              0.1                1              400              450               24
39000             4700            82000           240000            10000             3900           1e-009         4.7e-008      23.85350601      11.45086797       7.08343001      4.835643661     0.7453416149     0.2194244604                3              0.1                1              400              450               32
6800            13000             3900            68000           130000            56000         1.5e-009         1.2e-007      25.51882065      4.708921121      17.19051496      3.290349603     0.9457579972     0.1989247312                3              0.1                1              400              450               32
47000             5600           470000            47000           130000             4700         2.7e-009         1.5e-009      32.51597519      13.15280464       7.31127026      10.95627299    0.09090909091     0.4651076466                3              0.1                1              400              450               32
5600            62000            16000           360000            13000             5600         1.2e-009         2.7e-008      11.26423614      6.003039514      1.512728556      3.407698247     0.9574468085     0.1989247312                3              0.1                1              400              450               32
5100            11000           100000            15000           360000            18000         2.2e-008           1e-009      21.67132073      8.695652174      1.300680494      10.61362552     0.1304347826     0.4523809524                3              0.1                1              400              450               64
4300           15000            1600            9100            9100            3300        5.6e-009        2.7e-008      11.5778606      6.52317568      2.94885746      1.91438861      0.85046729     0.233870968               3             0.1               1             400             450              64
6800            91000            13000           150000             5600             2400         1.8e-009         8.2e-009      15.74999844      2.249488753      9.021814958      4.071540662     0.9202453988              0.2                3              0.1                1              400              450               64
4300            20000            36000           110000             5600             1800         6.8e-009         1.2e-008      26.48012031      3.247082699       7.71298605      14.10913778     0.7534246575     0.2567567568                3              0.1                1              400              450               64
24000            16000            36000           240000            10000             4700           1e-009         3.9e-008      21.09944771       9.34320074      10.83977723     0.8331543105     0.8695652174     0.1802721088                3              0.1                1              400              450              128
1200             2000            11000             2700           430000            30000           1e-007           1e-008      22.09790796     0.7299270073      14.18940559      6.525977608      0.197080292     0.4347826087                3              0.1                1              400              450              128
9100           13000           47000           56000           56000           10000        6.8e-009        5.6e-009      22.5112048      19.6116505     0.204050225      2.45045828      0.54368932     0.348484848               3             0.1               1             400             450             128
10000            15000             1500            20000           430000           160000           1e-009         5.6e-008      22.11028147      14.34108527      5.926897442      1.674817055     0.9302325581     0.2288135593                3              0.1                1              400              450              128
