39000            3900            9100            4700           30000            3900        1.8e-009        8.2e-009      23.9542295      1.31921219      21.1111205      1.38536078      0.34057971     0.384955752               3            0.25            1.25             400             450               1
6200           47000           12000           56000            4700            1800        4.7e-009        8.2e-009      9.46395331     0.871459695      7.05911013      1.39398498     0.823529412     0.223076923               3            0.25            1.25             400             450               2
1800            30000             1800            24000           120000            47000         5.6e-009         3.3e-008       19.2892912      10.17648029     0.2918693158      8.019037813     0.9302325581     0.2185628743                3             0.25             1.25              400              450                3
43000             2700           680000           750000           820000           180000         1.2e-009         3.3e-008      27.20244508      2.874902875       9.97291964      13.04965688     0.5244755245             0.32                3             0.25             1.25              400              450                4
5600           130000             6800            16000            82000            24000         8.2e-009         1.2e-009      13.48006606      3.313840156      1.731532642      7.667902963      0.701754386     0.2735849057                3             0.25              1.5              400              450                1
1000           100000           240000           680000             3900             1300         4.7e-008         2.7e-009      22.14581434      1.449275362      18.43033227      2.060187921     0.7391304348             0.25                3             0.25              1.5              400              450                2
1200            47000            24000           120000            22000             8200         2.7e-008           1e-008      24.57192534      2.303523035      21.26020435     0.9165435978     0.8333333333     0.2284768212                3             0.25              1.5              400              450                3
1800            22000           100000           750000            91000            36000           1e-008         2.7e-008      13.20995064      3.758169935       3.18977916      5.692728679     0.8823529412     0.2165354331                3             0.25              1.5              400              450                4
3600           150000            13000           130000             5100             2200         3.9e-009         5.6e-009      12.78388063     0.5509641873      3.745024662      7.716265257     0.9090909091      0.198630137                3             0.25                2              400              450                1
33000           68000           16000           75000            3600            1300        1.2e-009        5.6e-009      41.6334689      3.55029586      22.1166731      14.5149999     0.824175824     0.234693878               3            0.25               2             400             450               2
1000             8200             1300           110000             6200             2700         2.2e-009         8.2e-007      22.98971123       8.59316939       13.6462949     0.6820426695     0.9883198562     0.1966292135                3             0.25                2              400              450                3
9100           300000            30000           300000            24000            10000         1.8e-009         2.7e-009      14.71754262       3.03030303      10.81022822     0.7972830596     0.9090909091     0.2058823529                3             0.25                2              400              450                4
1100           47000            3300            9100           11000            3600        3.9e-008        4.7e-009      8.29219088     0.791517324      6.47051663     0.936506291     0.733870968     0.253424658               3            0.25             2.5             400             450               1
3300           180000             1500            75000           390000           150000           1e-009         1.8e-008      25.59962641      17.64705882      4.543834948       3.09884785     0.9803921569     0.2222222222                3             0.25              2.5              400              450                2
2000           100000            51000           910000            43000            30000         5.6e-009         2.2e-008      45.60099559      23.19343277      15.31116094      6.451274442      0.946930281    0.08904109589                3             0.25              2.5              400              450                3
3600           200000            39000           620000            11000             6200         2.7e-009         5.6e-009      35.09384861      12.99949418      14.51898497      6.886699507     0.9408194234     0.1395348837                3             0.25              2.5              400              450                4
