8200             3000             9100             9100           150000            33000         8.2e-009         2.7e-008      99.54297069      7.575757576      1.152148148     0.9241410531              0.5     0.3196721311                3             0.27             1.27              450              350              0.1             32.5                9
15000             1500           330000           270000            10000             2000         4.7e-009         4.7e-008      103.3333333               10     0.9592260166      4.173404237             0.45     0.3333333333                3             0.27             1.27              450              350              0.1             32.5                9
3900             1600            62000           130000            24000             8200         1.2e-008         1.2e-007      114.4155711      11.37364499      1.859583651      5.799431325     0.6770833333     0.2453416149                3             0.27             1.27              450              350              0.1             32.5                9
2000            33000            62000            82000           200000            51000         3.3e-008         3.3e-009      103.4079338      6.581336238      5.200878185      2.889295305     0.5694444444      0.296812749                3             0.27             1.27              450              350              0.1             32.5                9
18000             8200           150000           150000            10000             2200         3.9e-009           1e-008      99.54297069      7.575757576      1.608860616     0.6139346672              0.5     0.3196721311                3             0.27             1.27              450              350              0.1             32.5                9
4700             3300           240000           360000           750000           200000         1.2e-008         3.3e-008      103.9473684                5      4.869936711      3.729585592              0.6     0.2894736842                3             0.27             1.27              450              350              0.1             32.5                9
