4300             8200           620000           150000           270000            20000         2.2e-008         2.2e-009      92.30266883      5.844155844      4.855064707      1.915494752     0.1948051948     0.4310344828                3             0.27            1.225              200              500              0.1             32.5               10
1600             3600           150000           160000           270000            56000         3.9e-008         2.2e-008      97.11290323      0.153609831      3.104442294      2.147160588     0.5161290323     0.3282208589                3             0.27            1.225              200              500              0.1             32.5               10
5600            2700           22000           10000           13000            1500        1.5e-008        1.2e-008      85.2843226     0.694444444      3.62915022     0.869237226          0.3125     0.396551724               3            0.27           1.225             200             500             0.1            32.5              10
47000           62000            7500            6200           68000           12000        1.5e-009          1e-009      90.7554745     0.567721006      1.12671389      1.63782854     0.452554745            0.35               3            0.27           1.225             200             500             0.1            32.5              10
24000             7500           430000           240000            36000             5100         3.3e-009         5.6e-009      84.55178183       3.77524144      3.864403989     0.2406048976     0.3582089552     0.3759124088                3             0.27            1.225              200              500              0.1             32.5               10
15000           22000            5600            3000           39000            5100        5.6e-009        1.8e-009      83.9353741     0.547195622     0.210308459      1.15707761     0.348837209     0.384353741               3            0.27           1.225             200             500             0.1            32.5              10
16000             1100            24000            18000           470000            82000         4.7e-009         5.6e-008      88.83482301      3.832752613      2.326027228      2.750273601     0.4285714286     0.3514492754                3             0.27            1.225              200              500              0.1             32.5               10
30000           24000           16000           11000           47000            7500        2.7e-009        2.2e-009      87.4792729      1.31687243      2.78296675      1.82804033     0.407407407     0.362385321               3            0.27           1.225             200             500             0.1            32.5              10
18000             3300             5600             1800           150000            15000         5.6e-009         8.2e-009      94.04235335      10.81081081      3.633525824       3.68892581     0.2432432432     0.4090909091                3             0.27            1.225              200              500              0.1             32.5               10
1800            10000           620000           160000            22000             1800         5.6e-008         2.2e-009      94.02861771      9.591642925      3.327391484     0.6948994507     0.2051282051     0.4243697479                3             0.27             1.23              200              500              0.1             32.5               10
1200             4700            36000            39000           110000            24000         5.6e-008         1.8e-008             97.5      3.222222222      1.403932863     0.6862997103             0.52     0.3208955224                3             0.27             1.23              200              500              0.1             32.5               10
7500             7500           750000           560000           470000            82000           1e-008         8.2e-009      88.97047213      4.077452988      2.116398724      2.985895029      0.427480916     0.3514492754                3             0.27             1.23              200              500              0.1             32.5               10
68000             5100           820000           820000           150000            30000           1e-009         1.5e-008             95.5                0      1.315270383         0.619201              0.5     0.3333333333                3             0.27             1.23              200              500              0.1             32.5               10
5100           24000           15000            6800           27000            3300        1.8e-008        1.5e-009       85.640465      4.53155407      3.21175202      2.24605163     0.311926606     0.391089109               3            0.27            1.23             200             500             0.1            32.5              10
51000             1800           150000           100000            27000             4700         1.5e-009         3.3e-008      93.68989957      10.07092199      1.493874278      4.945476006              0.4     0.3517350158                3             0.27             1.23              200              500              0.1             32.5               10
15000             1300           820000           560000           620000           110000         5.6e-009         4.7e-008      95.73735501      10.23276241      6.424882457      0.168270039     0.4057971014     0.3493150685                3             0.27             1.23              200              500              0.1             32.5               10
4700            1100           12000            7500            8200            1300        1.8e-008        4.7e-008      88.7693485      6.31163708      4.18038346      1.03300497     0.384615385     0.363157895               3            0.27            1.23             200             500             0.1            32.5              10
7500            16000             1000             1300           620000           160000         8.2e-009         6.8e-009       106.673913      8.152173913      1.160105618      1.252257145     0.5652173913     0.2948717949                3             0.27             1.23              200              500              0.1             32.5               10
1100            24000           100000            36000           270000            27000         8.2e-008         1.2e-009      86.40909091      2.941176471      1.253748363      2.148329115     0.2647058824     0.4090909091                3             0.27            1.235              200              500              0.1             32.5               10
3600           22000           16000           10000           82000           12000        2.2e-008        2.2e-009       86.195581     0.427350427      1.66263729      1.89797576     0.384615385     0.372340426               3            0.27           1.235             200             500             0.1            32.5              10
5600             8200            24000             7500           270000            24000         1.8e-008         2.7e-009      92.27834055      2.777777778     0.4441842656       8.44160586     0.2380952381     0.4183673469                3             0.27            1.235              200              500              0.1             32.5               10
8200           16000           22000            7500           91000            9100        1.2e-008        1.8e-009      91.6464138      6.77966102      5.45766189     0.768072905     0.254237288     0.409090909               3            0.27           1.235             200             500             0.1            32.5              10
12000             1600           910000           220000           470000            36000         8.2e-009         1.2e-008      93.66938074      8.784005244        1.3384575      2.199470656     0.1946902655     0.4288537549                3             0.27            1.235              200              500              0.1             32.5               10
9100            43000            24000            13000           330000            47000           1e-008         1.2e-009      95.42666781      6.057120951      12.34704866      4.354206563     0.3513513514      0.375331565                3             0.27            1.235              200              500              0.1             32.5               10
15000           16000           56000           33000           24000            3300        4.7e-009        2.7e-009      91.8308215      2.24719101      6.93873657      6.40134537     0.370786517     0.379120879               3            0.27           1.235             200             500             0.1            32.5              10
22000             1800             2400             1200           510000            62000         3.9e-009         2.2e-008      85.96024663      2.508960573      4.799407469      2.929512244     0.3333333333     0.3916083916                3             0.27            1.235              200              500              0.1             32.5               10
11000             1800           330000           180000           150000            20000         6.8e-009         2.2e-008      87.30970473                0      6.780292962      3.219882287     0.3529411765     0.3823529412                3             0.27            1.235              200              500              0.1             32.5               10
2700            18000            39000            11000           330000            27000         3.3e-008         1.2e-009      88.20876672      3.037037037       3.77179193      2.634968769             0.22     0.4243697479                3             0.27            1.225              250              500              0.1             32.5               10
33000            1100           82000           33000           75000            8200        2.7e-009        2.7e-008      85.6442308      2.94803818      2.30087526       2.3938434     0.286956522     0.401442308               3            0.27           1.225             250             500             0.1            32.5              10
56000             4300            36000            39000           300000            62000         1.2e-009         1.8e-008             97.5      1.204301075     0.3229356879      3.427450218             0.52     0.3287292818                3             0.27            1.225              250              500              0.1             32.5               10
39000            1100            6800            3000           13000            1500        2.2e-009        3.3e-008      86.2280571      1.36054422      3.12825375      4.57288468     0.306122449     0.396551724               3            0.27           1.225             250             500             0.1            32.5              10
7500            5600           13000            1800           30000            1300        1.5e-008        1.8e-009      95.1633484      2.39085239       1.6159598      7.31670308     0.121621622     0.458466454               3            0.27           1.225             250             500             0.1            32.5              10
4700             3600            16000             3000           300000            16000         2.2e-008         3.9e-009      90.91776595      3.947368421      3.533688669    0.07851777804     0.1578947368     0.4493670886                3             0.27            1.225              250              500              0.1             32.5               10
3000            20000           120000            82000             7500             1200         2.7e-008         2.7e-009      87.54209161      1.897689769       3.74113565     0.5385813589     0.4059405941     0.3620689655                3             0.27            1.225              250              500              0.1             32.5               10
6800            13000            68000            33000           360000            47000         1.2e-008         3.3e-009      90.05296589      5.687802823      2.804964045      7.413074619     0.3267326733     0.3845208845                3             0.27            1.225              250              500              0.1             32.5               10
9100            1300           43000           20000           24000            3000          1e-008        2.7e-008      86.9979639      4.76190476     0.436332966      4.84717026     0.317460317     0.388888889               3            0.27           1.225             250             500             0.1            32.5              10
13000            13000           150000            68000            15000             1800         6.8e-009         2.2e-009       99.1963983      2.956167176      9.648224985      11.76245903     0.3119266055     0.3928571429                3             0.27             1.23              250              500              0.1             32.5               10
5600             1800           910000           470000           360000            51000         1.5e-008         2.2e-008      88.46658547      8.510940608      3.864403989       2.97676835     0.3405797101     0.3759124088                3             0.27             1.23              250              500              0.1             32.5               10
43000            3600           11000            3000           30000            2400        2.2e-009        5.6e-009      88.1640212      3.57142857      3.07997227      2.11084983     0.214285714     0.425925926               3            0.27            1.23             250             500             0.1            32.5              10
5100             9100           750000           510000           560000            82000         1.5e-008         5.6e-009      90.33658971      5.632984901      2.458907156      2.835817936     0.4047619048     0.3722741433                3             0.27             1.23              250              500              0.1             32.5               10
20000             4300           300000            18000            91000             1800         5.6e-009           1e-009      95.57301632      2.725366876      1.998186198      5.512671489    0.05660377358     0.4806034483                3             0.27             1.23              250              500              0.1             32.5               10
7500            27000           270000           110000            18000             2000         1.2e-008         1.2e-009      85.50877193       3.50877193      1.756207968      0.481267833     0.2894736842              0.4                3             0.27             1.23              250              500              0.1             32.5               10
10000            30000           300000           270000             6800             1300         6.8e-009         2.2e-009      93.24339487      1.619433198      3.874973816      0.113397714     0.4736842105     0.3395061728                3             0.27             1.23              250              500              0.1             32.5               10
8200            3600           82000           56000           10000            1800          1e-008        1.5e-008      95.8550284      11.3258186      1.47348548      5.44949965     0.405797101     0.347457627               3            0.27            1.23             250             500             0.1            32.5              10
75000             5100           510000           160000            75000             6800         1.2e-009         4.7e-009         87.93053       4.24348844      3.178375204     0.6109255007     0.2388059701     0.4168704156                3             0.27             1.23              250              500              0.1             32.5               10
47000             3000           430000            62000           910000            43000         2.2e-009         3.9e-009      94.39219956      6.904266717      0.532669386     0.1516237181     0.1260162602     0.4548793284                3             0.27            1.235              250              500              0.1             32.5               10
1000             1000           910000           470000            13000             1800         8.2e-008         3.9e-008       87.7175898      6.655931294      4.723820672      1.642076266     0.3405797101     0.3783783784                3             0.27            1.235              250              500              0.1             32.5               10
36000            27000            11000             6800           240000            36000         2.2e-009         1.8e-009      85.65876893      2.372034956     0.6460733862      1.613715429     0.3820224719     0.3695652174                3             0.27            1.235              250              500              0.1             32.5               10
2700            2000            5100            2400           24000            3000        3.3e-008        1.8e-008      84.8888889               4     0.646073386      2.82439688            0.32     0.388888889               3            0.27           1.235             250             500             0.1            32.5              10
15000            47000           150000            91000            22000             3300         5.6e-009           1e-009       85.2197767      3.503918857       1.89815185      2.300859984      0.377593361     0.3695652174                3             0.27            1.235              250              500              0.1             32.5               10
3600            13000           270000           270000            56000            11000         1.8e-008         5.6e-009             95.5      1.515151515       2.69972203      1.148705683              0.5     0.3358208955                3             0.27            1.235              250              500              0.1             32.5               10
39000            1100           10000            5100           11000            1600        2.2e-009        3.9e-008      90.6426469      11.3410596    0.0487093174     0.552467348     0.337748344     0.373015873               3            0.27           1.235             250             500             0.1            32.5              10
1500            30000             4300             3000           150000            24000         5.6e-008         1.8e-009      89.77845864     0.6849315068      5.475671673      3.255731466     0.4109589041     0.3620689655                3             0.27            1.235              250              500              0.1             32.5               10
6800            1300           20000            3900           56000            3300        1.5e-008        1.2e-008      89.9350759      2.25687841      3.14529939     0.935744528     0.163179916     0.444350759               3            0.27           1.235             250             500             0.1            32.5              10
30000           20000           68000           18000           30000            2200        3.3e-009          1e-009      88.6677019       2.1141649      3.14138614      0.39757706     0.209302326     0.431677019               3            0.27           1.225             300             500             0.1            32.5              10
1100            15000           120000            43000            62000             6200         8.2e-008         1.8e-009      86.40909091       3.27198364      1.984690158     0.9369221452      0.263803681     0.4090909091                3             0.27            1.225              300              500              0.1             32.5               10
13000             7500           360000            43000           330000            13000         8.2e-009         1.2e-009      94.91102236      6.158936184      1.984690158      4.042173645     0.1066997519     0.4620991254                3             0.27            1.225              300              500              0.1             32.5               10
3900           82000            2200            3000           27000            6200        1.5e-008        1.2e-009      103.192308      2.97766749     0.521419328     0.442077663     0.576923077     0.313253012               3            0.27           1.225             300             500             0.1            32.5              10
10000            6200            5100            1100           33000            2000          1e-008        2.7e-009      90.5221212      3.49462366      4.23640689      2.46450153     0.177419355     0.442857143               3            0.27           1.225             300             500             0.1            32.5              10
3900            3000           39000           18000           24000            2400        2.2e-008          1e-008      98.6985646      15.7894737     0.799043341     0.488318216     0.315789474     0.409090909               3            0.27           1.225             300             500             0.1            32.5              10
56000           39000           12000            6800           51000            7500        1.5e-009        1.2e-009      86.3071468      5.95744681       2.6573633     0.764246602     0.361702128     0.371794872               3            0.27           1.225             300             500             0.1            32.5              10
3000            39000            75000            43000           510000            75000         2.7e-008         1.2e-009      85.87440243      5.254237288     0.8711108815      2.137754126     0.3644067797     0.3717948718                3             0.27            1.225              300              500              0.1             32.5               10
33000           47000            4700            4700           15000            3300        2.2e-009        1.8e-009      100.822907      7.57575758      4.74714969     0.734824017             0.5     0.319672131               3            0.27           1.225             300             500             0.1            32.5              10
11000             4300           360000           270000             7500             1200         6.8e-009         1.2e-008      89.63546798      3.571428571      2.471825534      2.749802729     0.4285714286     0.3620689655                3             0.27             1.23              300              500              0.1             32.5               10
3000             2200             6800             3600           430000            56000         2.7e-008         1.8e-008      83.97736626     0.1373626374      1.412109096      1.229713633     0.3461538462     0.3847736626                3             0.27             1.23              300              500              0.1             32.5               10
2700             1600           270000           100000           160000            16000         3.3e-008         1.8e-008      86.40909091     0.9009009009     0.6460733862      2.005233883     0.2702702703     0.4090909091                3             0.27             1.23              300              500              0.1             32.5               10
2700           22000           27000           20000           43000            7500        2.7e-008        2.7e-009      89.1934321      4.49172577      1.00887844      3.01755816     0.425531915     0.351485149               3            0.27            1.23             300             500             0.1            32.5              10
1200            3900           22000            5600           36000            2700        8.2e-008        4.7e-009      89.7457273      3.05958132      2.62944531      4.72247151     0.202898551     0.430232558               3            0.27            1.23             300             500             0.1            32.5              10
33000           100000             4700             6800           220000            56000         1.8e-009         1.2e-009      106.0220165      2.857142857      4.891581696      2.092975618     0.5913043478     0.2971014493                3             0.27             1.23              300              500              0.1             32.5               10
1600             1800           110000            75000           680000           110000         4.7e-008         2.7e-008      89.50161717      2.948402948      5.885127266      2.425604173     0.4054054054     0.3607594937                3             0.27             1.23              300              500              0.1             32.5               10
15000             1300           510000           270000           910000           120000         5.6e-009         3.3e-008      84.07268743     0.9615384615      3.723172865      2.898818158     0.3461538462     0.3834951456                3             0.27             1.23              300              500              0.1             32.5               10
62000            12000             5100             3900           270000            47000         1.2e-009         4.7e-009      89.00683491      2.576832151      2.508802173      1.860498154     0.4333333333     0.3517350158                3             0.27             1.23              300              500              0.1             32.5               10
4700             8200            30000             4700           160000             7500         2.2e-008         1.5e-009      91.02238806      0.832532821      3.377571922      1.914063446     0.1354466859     0.4552238806                3             0.27            1.235              300              500              0.1             32.5               10
33000            56000             7500             6800           430000            82000         2.2e-009         1.2e-009      93.05244755      1.029052249     0.4961503696       2.78852611     0.4755244755       0.33984375                3             0.27            1.235              300              500              0.1             32.5               10
11000             2700             3300             1200           160000            16000         8.2e-009           1e-008      86.40909091      2.222222222      1.984690158      1.330987095     0.2666666667     0.4090909091                3             0.27            1.235              300              500              0.1             32.5               10
30000             6200           160000            56000            56000             5600         2.7e-009         4.7e-009      92.93404961      4.938271605      3.593581611      8.493105482     0.2592592593     0.4090909091                3             0.27            1.235              300              500              0.1             32.5               10
3300             6800           160000            15000           620000            20000         3.3e-008         1.2e-009      98.05489473      8.571428571      4.108466161      1.682054903    0.08571428571          0.46875                3             0.27            1.235              300              500              0.1             32.5               10
7500            11000            68000            51000           300000            51000           1e-008         5.6e-009      89.09247863      1.680672269      3.456374341      3.765250301     0.4285714286     0.3547008547                3             0.27            1.235              300              500              0.1             32.5               10
4700             9100           150000            18000           430000            16000         2.2e-008           1e-009      91.91255605     0.4464285714    0.08406346858     0.7039542217     0.1071428571     0.4641255605                3             0.27            1.235              300              500              0.1             32.5               10
27000            6200           13000            6200           10000            1300        3.3e-009        6.8e-009      89.8052076      6.43696581      6.37266655      3.11542069     0.322916667     0.384955752               3            0.27           1.235             300             500             0.1            32.5              10
1800             4300           150000            22000            82000             3600         5.6e-008         2.7e-009      91.88729372      1.378122308      2.519425526      4.092901193     0.1279069767     0.4579439252                3             0.27            1.235              300              500              0.1             32.5               10
24000            24000           100000            56000           150000            20000         3.3e-009         1.8e-009      84.88909454      1.709401709     0.6460733862      3.756364521      0.358974359     0.3823529412                3             0.27             1.23              300              500              0.1             32.5               10
3300            5600           16000            9100            6800            1000        2.7e-008        8.2e-009      87.2544914      5.73705179      4.58297237      3.31574285     0.362549801     0.371794872               3            0.27            1.23             300             500             0.1            32.5              10
11000            15000             4300             3600           680000           130000         6.8e-009         4.7e-009      93.59711926       5.35540409      4.172094922      1.763928257     0.4556962025     0.3395061728                3             0.27             1.23              300              500              0.1             32.5               10
4700             2700             4700             3600           120000            20000         1.5e-008         2.2e-008      90.87962376      1.204819277      0.405320196      4.791844072     0.4337349398     0.3571428571                3             0.27             1.23              300              500              0.1             32.5               10
22000             1300            91000             5600           560000            11000         5.6e-009         3.3e-009      100.6548542     0.3074220466      2.973925557      10.58129907    0.05797101449     0.4807355517                3             0.27             1.23              300              500              0.1             32.5               10
5100            43000           240000           160000           680000           100000         1.5e-008         1.2e-009      88.73291405                4      2.857314149      4.053426875              0.4     0.3717948718                3             0.27             1.23              300              500              0.1             32.5               10
6200            4700            8200            5600           20000            3300        1.2e-008        1.2e-008      89.0998006      4.49421754     0.198726291      4.68896309     0.405797101     0.358369099               3            0.27            1.23             300             500             0.1            32.5              10
1600             1100           430000           130000           430000            36000         5.6e-008         2.2e-008      89.65522085     0.1653439153      1.104742315      5.380542742     0.2321428571     0.4227467811                3             0.27             1.23              300              500              0.1             32.5               10
56000           62000           27000           27000           47000            9100        1.2e-009        1.2e-009            95.5      2.74725275     0.957682353     0.905414337             0.5     0.337789661               3            0.27            1.23             300             500             0.1            32.5              10
6800             8200           270000           220000           750000           130000         1.2e-008         8.2e-009      97.67072125      1.308215594      10.54548934     0.3224608021     0.4489795918     0.3522727273                3             0.27                1              300              500              0.1             32.5               10
7500             4700           430000           240000           820000           110000         1.2e-008         8.2e-009      89.73737943     0.9497964722       1.02342117      8.744440902     0.3582089552     0.3817204301                3             0.27                1              300              500              0.1             32.5               10
1600             7500             1500             1000           150000            24000         4.7e-008         6.8e-009      86.70689655      3.333333333      2.798343065        1.3062657              0.4     0.3620689655                3             0.27                1              300              500              0.1             32.5               10
20000           22000           11000            6200           16000            2200        4.7e-009        1.8e-009      92.0209952      0.59901339      3.27027325      11.0623957     0.360465116     0.379120879               3             0.9               1             300             500             0.1            32.5              10
6800           22000           16000            5100           15000            1300        1.5e-008          1e-009      92.8162785      1.02078017       1.0912412      8.79173859     0.241706161     0.420245399               3             0.9               1             300             500             0.1            32.5              10
3900            11000           430000           180000           470000            51000         2.2e-008         2.7e-009      86.06780928     0.4821600771      3.856676845      1.330011105     0.2950819672     0.4021113244                3              0.9                1              300              500              0.1             32.5               10
