110000             3300            15000             8200            82000            18000           1e-009         2.2e-008      121.8880956      34.54661558      16.55798078      3.438671627     0.3534482759             0.32                3             0.27             1.23              145              170              0.1             12.5               10
5600            15000           240000            62000           330000            36000         1.8e-008         1.8e-009      102.9907188       30.4267844      0.763272562      2.396760685     0.2052980132     0.4016393443                3             0.27             1.23              145              170              0.1              7.5               10
13000             9100            91000           150000           200000            47000         4.7e-009         1.2e-008      117.7576005      9.031517613      5.545611992      9.968147115      0.622406639     0.3097165992                3             0.27             1.23              145              170              0.1              7.5               10
8200           11000            2200            1500            6800            1000        6.8e-009        5.6e-009      111.611776      5.40540541      4.13912796      24.3472148     0.405405405     0.371794872               3            0.27            1.23             145             170             0.1             7.5              10
22000             4700            22000             7500           180000            16000         4.7e-009         4.7e-009      87.68576667      3.813559322     0.7145192367      12.33547266     0.2542372881     0.4183673469                3             0.27             1.23              145              170              0.1              7.5               10
2000            33000           100000            24000           390000            51000         5.6e-008         1.2e-009      128.9133294      44.21252372      13.57959209      5.685839486     0.1935483871     0.3843537415                3             0.27             1.23              145              170              0.1              7.5               10
20000           12000           10000            2000           75000            4700        5.6e-009        1.5e-009      90.8602134      5.79196217      11.2653654     0.278169479     0.166666667     0.441028858               3            0.27            1.23             145             170             0.1             7.5              10
110000            10000            27000             3900           100000             4700         1.2e-009         1.5e-009      103.9487732      6.279694278      22.45809514     0.5846841904     0.1262135922     0.4551098376                3             0.27             1.23              145              170              0.1              7.5               10
51000             1000           200000             5100           910000             7500         1.8e-009         2.7e-009      110.9630979      1.397692183      8.224481986      23.85605461    0.02486591906     0.4918256131                3             0.27             1.23              145              170              0.1              5.5               10
1800             3000            16000             3000           620000            36000         6.8e-008         5.6e-009      94.26829641      4.093567251       15.4273016      3.235232433     0.1578947368     0.4451219512                3             0.27             1.23              145              170              0.1              2.5               10
43000             1100           180000           130000           360000            43000         1.8e-009         3.9e-008      119.5170956      31.00775194      4.543834948      1.001181199     0.4193548387     0.3933002481                3             0.27             1.23              145              170              0.1              2.5               10
1200             1500           130000            75000           180000            27000         6.8e-008         3.3e-008      86.62713378      6.504065041      3.011982461      3.569198682     0.3658536585     0.3695652174                3             0.27             1.23              145              170              0.1              2.5               10
27000            16000           390000           160000            33000             3600         3.9e-009         2.7e-009      101.2868621      1.414141414      22.06036761      7.271650991     0.2909090909     0.4016393443                3             0.27             1.23              145              170              0.1              2.5               10
6800            36000             1500             1000           910000           240000         1.2e-008         2.2e-009       110.717271      36.11111111       1.67106813      2.775725137              0.4     0.2913043478                3             0.27             1.23              145              170              0.1              2.5               10
1500            1100           36000           39000           20000            3900        4.7e-008        8.2e-008      107.517977      6.22222222      11.8667856      3.74696096            0.52     0.336820084               3            0.27            1.23             145             170             0.1             2.5              10
1800             2000            91000            11000           750000            27000         5.6e-008         4.7e-009      84.60722559      3.449527959       1.89815185      4.932601104     0.1078431373     0.4652509653                3             0.27             1.23              145              170              0.1              4.5               10
6800             1800           560000           110000            43000             2400         1.8e-008           1e-008      97.83179192      3.524046434       19.8940891      1.272025833     0.1641791045     0.4471365639                3             0.27             1.23              145              170              0.1              4.5               10
130000             3300           330000           150000           620000            91000           1e-009         1.8e-008      120.3764472      18.61263736      30.61268468      1.664116115           0.3125     0.3720112518                3             0.27             1.23              145              170              0.1              4.5               10
75000             1800           620000           330000           330000            47000           1e-009         2.7e-008      93.16704156       7.12206047     0.5136896811      11.07498249     0.3473684211      0.375331565                3             0.37             1.23              145              170              0.1              4.5               10
2200             5600           150000           110000           220000            36000         2.7e-008           1e-008      104.8085977     0.2849002849       11.6279131      12.23549227     0.4230769231         0.359375                3             0.47             1.23              145              170              0.1              4.5               10
1800             1100            39000            18000           240000            24000         4.7e-008         2.2e-008       110.607854      15.78947368      11.23136509      11.09897697     0.3157894737     0.4090909091                3             0.57             1.23              145              170              0.1              4.5               10
110000             4700            27000             3600           300000            12000         1.2e-009         1.5e-009      113.5692128      1.960784314      4.344269558      33.37109709     0.1176470588     0.4615384615                3             0.77             1.23              145              170              0.1              4.5               10
3000            27000           150000           100000           160000            24000         2.2e-008         1.5e-009      101.5812337      2.222222222      19.22471194      1.334188229              0.4     0.3695652174                3             0.77             1.23              145              170              0.1              5.5               10
