1000             1500             6800             8200           160000            36000         6.8e-008         5.6e-008      104.9837487     0.7901234568     0.1110860363      8.684428954     0.5466666667     0.3163265306                3             0.27             1.27              450              350              0.1             32.5                9
20000             2400           130000            91000             9100             1600         3.9e-009         2.2e-008      103.2575133      8.210784314      3.990858654      4.205626526     0.4117647059     0.3504672897                3             0.27             1.27              450              350              0.1             32.5                9
5100            62000            68000           200000             9100             3900         8.2e-009         4.7e-009       122.324871      17.08126036      5.616744949      3.239575044     0.7462686567              0.2                3             0.27             1.27              450              350              0.1             32.5                9
13000            2400           18000           18000           24000            5100        4.7e-009        3.3e-008      98.4914492      4.90196078      5.46695391      5.55026848             0.5     0.324742268               3            0.27            1.27             450             350             0.1            32.5               9
1500             2400           330000           270000            27000             4300         3.9e-008         2.7e-008      116.3444419      9.186046512      3.158980485      15.89641455             0.45     0.3626198083                3             0.27             1.27              450              350              0.1             32.5                9
6200             2000            62000            15000           130000             9100         1.5e-008           1e-008      109.8083815     0.7421150278      2.363392812      6.350437621     0.1948051948     0.4345794393                3             0.27             1.27              450              350              0.1             32.5                9
1100            5600            5600            6200           91000           20000        6.8e-008        1.5e-008      103.472129      2.79661017      5.87088156      8.07689254     0.525423729      0.31981982               3            0.27            1.27             450             350             0.1            32.5               9
16000             5100             2000             2200           110000            27000         4.7e-009         1.8e-008      106.1010358      11.40505585      5.097990114      6.925066681     0.5238095238      0.302919708                3             0.27             1.27              450              350              0.1             32.5                9
13000             1800           510000           390000             8200             1500         5.6e-009         3.3e-008      101.1286751      6.592592593      3.514198275     0.1057202784     0.4333333333     0.3453608247                3             0.27             1.27              450              350              0.1             32.5                9
