5100             1600           160000           100000           100000            15000         1.5e-008         3.3e-008       86.9793524      1.709401709      3.011982461      6.839908025     0.3846153846     0.3695652174                3             0.26                1              450              250              0.1             32.5                2
1200           10000           62000           33000            8200            1100        5.6e-008        4.7e-009      95.0609752      2.10526316      3.72321807      16.3236088     0.347368421      0.38172043               3            0.26               1             450             250             0.1            32.5               2
2400            22000             5100             1000           390000            27000         3.9e-008           1e-009      97.38229478      15.60412872      7.717267523      14.14227605     0.1639344262     0.4352517986                3             0.26                1              450              250              0.1             32.5                2
6800             1600            30000             4700           750000            43000         1.8e-008         6.8e-009      103.5361459      16.73703729      4.428387289      24.24849912     0.1354466859     0.4457755359                3             0.26                1              450              250              0.1             32.5                2
1200            5600           12000            1800           91000            5600        8.2e-008        2.7e-009      87.6485393              25      2.35757875      3.04458378     0.130434783     0.442028986               3            0.26               1             450             250             0.1            32.5               2
12000             4300             2400             1600           150000            22000         6.8e-009         1.2e-008      88.52439328      4.242424242      6.067493261      1.005173451              0.4     0.3720930233                3             0.26                1              450              250              0.1             32.5                2
1500           24000            5100            2000           24000            2700        5.6e-008        1.2e-009       85.109032       7.1465832      8.53267469      1.37311954     0.281690141     0.398876404               3            0.26            1.25             450             250             0.1            32.5               2
36000             1800           820000           330000           240000            27000         2.7e-009         1.8e-008      82.44022602      5.410628019      4.875857398       3.57044798     0.2869565217     0.3988764045                3             0.26             1.25              450              250              0.1             32.5                2
33000             1600            68000            10000           300000            16000         3.3e-009         8.2e-009      78.58327081       15.5982906      2.761413259      2.466345272     0.1282051282     0.4493670886                3             0.26             1.25              450              250              0.1             32.5                2
5100             1200            51000             2400           120000             1800         2.2e-008         2.7e-009      61.76941336      1.373283396      2.234347056      5.145233403    0.04494382022     0.4852216749                3             0.26             1.25              450              250              0.1             32.5                2
20000             4700           390000           120000            56000             5100         4.7e-009         5.6e-009      77.98973791      6.036139946      3.438425875      3.332732499     0.2352941176     0.4165302782                3             0.26             1.25              450              250              0.1             32.5                2
1300             1100             7500             3300           680000            82000         6.8e-008         3.3e-008      79.09993615      5.352303523      2.435200486      1.518031444     0.3055555556     0.3923884514                3             0.26             1.25              450              250              0.1             32.5                2
